<?xml version="1.0" encoding="UTF-8" standalone="no"?>
<!-- Created with Inkscape (http://www.inkscape.org/) -->

<svg
   xmlns:dc="http://purl.org/dc/elements/1.1/"
   xmlns:cc="http://creativecommons.org/ns#"
   xmlns:rdf="http://www.w3.org/1999/02/22-rdf-syntax-ns#"
   xmlns:svg="http://www.w3.org/2000/svg"
   xmlns="http://www.w3.org/2000/svg"
   xmlns:sodipodi="http://sodipodi.sourceforge.net/DTD/sodipodi-0.dtd"
   xmlns:inkscape="http://www.inkscape.org/namespaces/inkscape"
   width="210mm"
   height="297mm"
   viewBox="0 0 744.09448819 1052.3622047"
   id="svg2"
   version="1.1"
   inkscape:version="0.91 r13725"
   sodipodi:docname="conc-binary.svg"
   inkscape:export-filename="C:\cygwin\home\axel22\workspaces\scala\progfun-slides\images\conc-binary.png"
   inkscape:export-xdpi="55.77"
   inkscape:export-ydpi="55.77">
  <defs
     id="defs4" />
  <sodipodi:namedview
     id="base"
     pagecolor="#ffffff"
     bordercolor="#666666"
     borderopacity="1.0"
     inkscape:pageopacity="0.0"
     inkscape:pageshadow="2"
     inkscape:zoom="0.35355339"
     inkscape:cx="2160.6142"
     inkscape:cy="299.26834"
     inkscape:document-units="px"
     inkscape:current-layer="layer1"
     showgrid="false"
     inkscape:window-width="1600"
     inkscape:window-height="877"
     inkscape:window-x="-4"
     inkscape:window-y="-4"
     inkscape:window-maximized="1" />
  <metadata
     id="metadata7">
    <rdf:RDF>
      <cc:Work
         rdf:about="">
        <dc:format>image/svg+xml</dc:format>
        <dc:type
           rdf:resource="http://purl.org/dc/dcmitype/StillImage" />
        <dc:title />
      </cc:Work>
    </rdf:RDF>
  </metadata>
  <g
     inkscape:label="Layer 1"
     inkscape:groupmode="layer"
     id="layer1">
    <text
       sodipodi:linespacing="125%"
       id="text5452"
       y="145.86304"
       x="2527.2896"
       style="font-style:normal;font-weight:normal;font-size:68.74373627px;line-height:125%;font-family:sans-serif;letter-spacing:0px;word-spacing:0px;fill:#000000;fill-opacity:1;stroke:none;stroke-width:1px;stroke-linecap:butt;stroke-linejoin:miter;stroke-opacity:1"
       xml:space="preserve"><tspan
         y="145.86304"
         x="2527.2896"
         id="tspan5454"
         sodipodi:role="line">1</tspan></text>
    <text
       xml:space="preserve"
       style="font-style:normal;font-weight:normal;font-size:68.74373627px;line-height:125%;font-family:sans-serif;letter-spacing:0px;word-spacing:0px;fill:#000000;fill-opacity:1;stroke:none;stroke-width:1px;stroke-linecap:butt;stroke-linejoin:miter;stroke-opacity:1"
       x="2357.584"
       y="561.35754"
       id="text5472"
       sodipodi:linespacing="125%"><tspan
         sodipodi:role="line"
         id="tspan5474"
         x="2357.584"
         y="561.35754">1</tspan></text>
    <text
       xml:space="preserve"
       style="font-style:normal;font-weight:normal;font-size:68.74373627px;line-height:125%;font-family:sans-serif;letter-spacing:0px;word-spacing:0px;fill:#000000;fill-opacity:1;stroke:none;stroke-width:1px;stroke-linecap:butt;stroke-linejoin:miter;stroke-opacity:1"
       x="2527.2896"
       y="982.20026"
       id="text5480"
       sodipodi:linespacing="125%"><tspan
         sodipodi:role="line"
         id="tspan5482"
         x="2527.2896"
         y="982.20026">1</tspan></text>
    <text
       sodipodi:linespacing="125%"
       id="text5488"
       y="980.42566"
       x="2357.584"
       style="font-style:normal;font-weight:normal;font-size:68.74373627px;line-height:125%;font-family:sans-serif;letter-spacing:0px;word-spacing:0px;fill:#000000;fill-opacity:1;stroke:none;stroke-width:1px;stroke-linecap:butt;stroke-linejoin:miter;stroke-opacity:1"
       xml:space="preserve"><tspan
         y="980.42566"
         x="2357.584"
         id="tspan5490"
         sodipodi:role="line">1</tspan></text>
    <text
       xml:space="preserve"
       style="font-style:normal;font-weight:normal;font-size:68.74373627px;line-height:125%;font-family:sans-serif;letter-spacing:0px;word-spacing:0px;fill:#000000;fill-opacity:1;stroke:none;stroke-width:1px;stroke-linecap:butt;stroke-linejoin:miter;stroke-opacity:1"
       x="2804.4753"
       y="145.86304"
       id="text5496"
       sodipodi:linespacing="125%"><tspan
         sodipodi:role="line"
         id="tspan5498"
         x="2804.4753"
         y="145.86304">1</tspan></text>
    <text
       sodipodi:linespacing="125%"
       id="text5524"
       y="560.64685"
       x="2804.4753"
       style="font-style:normal;font-weight:normal;font-size:68.74373627px;line-height:125%;font-family:sans-serif;letter-spacing:0px;word-spacing:0px;fill:#000000;fill-opacity:1;stroke:none;stroke-width:1px;stroke-linecap:butt;stroke-linejoin:miter;stroke-opacity:1"
       xml:space="preserve"><tspan
         y="560.64685"
         x="2804.4753"
         id="tspan5526"
         sodipodi:role="line">1</tspan></text>
    <text
       xml:space="preserve"
       style="font-style:normal;font-weight:normal;font-size:68.74373627px;line-height:125%;font-family:sans-serif;letter-spacing:0px;word-spacing:0px;fill:#000000;fill-opacity:1;stroke:none;stroke-width:1px;stroke-linecap:butt;stroke-linejoin:miter;stroke-opacity:1"
       x="2804.4753"
       y="983.37183"
       id="text5536"
       sodipodi:linespacing="125%"><tspan
         sodipodi:role="line"
         id="tspan5538"
         x="2804.4753"
         y="983.37183">1</tspan></text>
    <text
       xml:space="preserve"
       style="font-style:normal;font-weight:normal;font-size:68.74373627px;line-height:125%;font-family:sans-serif;letter-spacing:0px;word-spacing:0px;fill:#000000;fill-opacity:1;stroke:none;stroke-width:1px;stroke-linecap:butt;stroke-linejoin:miter;stroke-opacity:1"
       x="2128.4812"
       y="1346.4054"
       id="text5554"
       sodipodi:linespacing="125%"><tspan
         sodipodi:role="line"
         id="tspan5556"
         x="2128.4812"
         y="1346.4054">1</tspan></text>
    <text
       sodipodi:linespacing="125%"
       id="text5558"
       y="1348.2002"
       x="2527.2896"
       style="font-style:normal;font-weight:normal;font-size:68.74373627px;line-height:125%;font-family:sans-serif;letter-spacing:0px;word-spacing:0px;fill:#000000;fill-opacity:1;stroke:none;stroke-width:1px;stroke-linecap:butt;stroke-linejoin:miter;stroke-opacity:1"
       xml:space="preserve"><tspan
         y="1348.2002"
         x="2527.2896"
         id="tspan5560"
         sodipodi:role="line">0</tspan></text>
    <text
       xml:space="preserve"
       style="font-style:normal;font-weight:normal;font-size:68.74373627px;line-height:125%;font-family:sans-serif;letter-spacing:0px;word-spacing:0px;fill:#000000;fill-opacity:1;stroke:none;stroke-width:1px;stroke-linecap:butt;stroke-linejoin:miter;stroke-opacity:1"
       x="2349.584"
       y="1346.4257"
       id="text5562"
       sodipodi:linespacing="125%"><tspan
         sodipodi:role="line"
         id="tspan5564"
         x="2349.584"
         y="1346.4257">0</tspan></text>
    <text
       xml:space="preserve"
       style="font-style:normal;font-weight:normal;font-size:68.74373627px;line-height:125%;font-family:sans-serif;letter-spacing:0px;word-spacing:0px;fill:#000000;fill-opacity:1;stroke:none;stroke-width:1px;stroke-linecap:butt;stroke-linejoin:miter;stroke-opacity:1"
       x="2527.2896"
       y="560.2002"
       id="text5566"
       sodipodi:linespacing="125%"><tspan
         sodipodi:role="line"
         id="tspan5568"
         x="2527.2896"
         y="560.2002">0</tspan></text>
    <text
       xml:space="preserve"
       style="font-style:normal;font-weight:normal;font-size:118.40328217px;line-height:125%;font-family:sans-serif;letter-spacing:0px;word-spacing:0px;fill:#000000;fill-opacity:1;stroke:none;stroke-width:1px;stroke-linecap:butt;stroke-linejoin:miter;stroke-opacity:1"
       x="2639.3684"
       y="162.21161"
       id="text4235"
       sodipodi:linespacing="125%"><tspan
         sodipodi:role="line"
         id="tspan4237"
         x="2639.3684"
         y="162.21161">+</tspan></text>
    <text
       sodipodi:linespacing="125%"
       id="text4239"
       y="580.81885"
       x="2639.3684"
       style="font-style:normal;font-weight:normal;font-size:118.40328217px;line-height:125%;font-family:sans-serif;letter-spacing:0px;word-spacing:0px;fill:#000000;fill-opacity:1;stroke:none;stroke-width:1px;stroke-linecap:butt;stroke-linejoin:miter;stroke-opacity:1"
       xml:space="preserve"><tspan
         y="580.81885"
         x="2639.3684"
         id="tspan4241"
         sodipodi:role="line">+</tspan></text>
    <text
       xml:space="preserve"
       style="font-style:normal;font-weight:normal;font-size:118.40328217px;line-height:125%;font-family:sans-serif;letter-spacing:0px;word-spacing:0px;fill:#000000;fill-opacity:1;stroke:none;stroke-width:1px;stroke-linecap:butt;stroke-linejoin:miter;stroke-opacity:1"
       x="2639.3684"
       y="990.9408"
       id="text4243"
       sodipodi:linespacing="125%"><tspan
         sodipodi:role="line"
         id="tspan4245"
         x="2639.3684"
         y="990.9408">+</tspan></text>
    <text
       xml:space="preserve"
       style="font-style:normal;font-weight:normal;font-size:61.82690811px;line-height:125%;font-family:sans-serif;letter-spacing:0px;word-spacing:0px;fill:#000000;fill-opacity:1;stroke:none;stroke-width:1px;stroke-linecap:butt;stroke-linejoin:miter;stroke-opacity:1"
       x="2052.9429"
       y="1452.2831"
       id="text4251"
       sodipodi:linespacing="125%"><tspan
         sodipodi:role="line"
         id="tspan4253"
         x="2052.9429"
         y="1452.2831">W=2<tspan
   style="font-size:65%;baseline-shift:super"
   id="tspan4199">2</tspan></tspan></text>
    <text
       sodipodi:linespacing="125%"
       id="text4255"
       y="1452.2831"
       x="2282.5308"
       style="font-style:normal;font-weight:normal;font-size:61.82690811px;line-height:125%;font-family:sans-serif;letter-spacing:0px;word-spacing:0px;fill:#000000;fill-opacity:1;stroke:none;stroke-width:1px;stroke-linecap:butt;stroke-linejoin:miter;stroke-opacity:1"
       xml:space="preserve"><tspan
         y="1452.2831"
         x="2282.5308"
         id="tspan4257"
         sodipodi:role="line">W=2<tspan
   style="font-size:65%;baseline-shift:super"
   id="tspan4197">1</tspan></tspan></text>
    <text
       xml:space="preserve"
       style="font-style:normal;font-weight:normal;font-size:61.82690811px;line-height:125%;font-family:sans-serif;letter-spacing:0px;word-spacing:0px;fill:#000000;fill-opacity:1;stroke:none;stroke-width:1px;stroke-linecap:butt;stroke-linejoin:miter;stroke-opacity:1"
       x="2488.5208"
       y="1452.2831"
       id="text4259"
       sodipodi:linespacing="125%"><tspan
         sodipodi:role="line"
         id="tspan4261"
         x="2488.5208"
         y="1452.2831">W=2<tspan
   style="font-size:65%;baseline-shift:super"
   id="tspan4195">0</tspan></tspan></text>
    <text
       xml:space="preserve"
       style="font-style:normal;font-weight:normal;font-size:61.82690811px;line-height:125%;font-family:sans-serif;letter-spacing:0px;word-spacing:0px;fill:#000000;fill-opacity:1;stroke:none;stroke-width:1px;stroke-linecap:butt;stroke-linejoin:miter;stroke-opacity:1"
       x="2268.5308"
       y="1087.416"
       id="text4263"
       sodipodi:linespacing="125%"><tspan
         sodipodi:role="line"
         id="tspan4265"
         x="2268.5308"
         y="1087.416">W=2<tspan
   style="font-size:65%;baseline-shift:super"
   id="tspan4193">1</tspan></tspan></text>
    <text
       sodipodi:linespacing="125%"
       id="text4267"
       y="1087.416"
       x="2474.5208"
       style="font-style:normal;font-weight:normal;font-size:61.82690811px;line-height:125%;font-family:sans-serif;letter-spacing:0px;word-spacing:0px;fill:#000000;fill-opacity:1;stroke:none;stroke-width:1px;stroke-linecap:butt;stroke-linejoin:miter;stroke-opacity:1"
       xml:space="preserve"><tspan
         y="1087.416"
         x="2474.5208"
         id="tspan4269"
         sodipodi:role="line">W=2<tspan
   style="font-size:65%;baseline-shift:super"
   id="tspan4191">0</tspan></tspan></text>
    <text
       sodipodi:linespacing="125%"
       id="text4279"
       y="665.98035"
       x="2272.5308"
       style="font-style:normal;font-weight:normal;font-size:61.82690811px;line-height:125%;font-family:sans-serif;letter-spacing:0px;word-spacing:0px;fill:#000000;fill-opacity:1;stroke:none;stroke-width:1px;stroke-linecap:butt;stroke-linejoin:miter;stroke-opacity:1"
       xml:space="preserve"><tspan
         y="665.98035"
         x="2272.5308"
         id="tspan4281"
         sodipodi:role="line">W=2<tspan
   style="font-size:65%;baseline-shift:super"
   id="tspan4189">1</tspan></tspan></text>
    <text
       xml:space="preserve"
       style="font-style:normal;font-weight:normal;font-size:61.82690811px;line-height:125%;font-family:sans-serif;letter-spacing:0px;word-spacing:0px;fill:#000000;fill-opacity:1;stroke:none;stroke-width:1px;stroke-linecap:butt;stroke-linejoin:miter;stroke-opacity:1"
       x="2478.5208"
       y="665.98035"
       id="text4283"
       sodipodi:linespacing="125%"><tspan
         sodipodi:role="line"
         id="tspan4285"
         x="2478.5208"
         y="665.98035">W=2<tspan
   style="font-size:65%;baseline-shift:super"
   id="tspan4187">0</tspan></tspan></text>
    <text
       sodipodi:linespacing="125%"
       id="text4291"
       y="250.20155"
       x="2466.5208"
       style="font-style:normal;font-weight:normal;font-size:61.82690811px;line-height:125%;font-family:sans-serif;letter-spacing:0px;word-spacing:0px;fill:#000000;fill-opacity:1;stroke:none;stroke-width:1px;stroke-linecap:butt;stroke-linejoin:miter;stroke-opacity:1"
       xml:space="preserve"><tspan
         y="250.20155"
         x="2466.5208"
         id="tspan4293"
         sodipodi:role="line">W=2<tspan
   style="font-size:65%;baseline-shift:super"
   id="tspan4185">0</tspan></tspan></text>
    <flowRoot
       xml:space="preserve"
       id="flowRoot4201"
       style="fill:black;stroke:none;stroke-opacity:1;stroke-width:1px;stroke-linejoin:miter;stroke-linecap:butt;fill-opacity:1;font-family:sans-serif;font-style:normal;font-weight:normal;font-size:40px;line-height:125%;letter-spacing:0px;word-spacing:0px"><flowRegion
         id="flowRegion4203"><rect
           id="rect4205"
           width="214.96046"
           height="302.64169"
           x="1688.571"
           y="-2.6411145" /></flowRegion><flowPara
         id="flowPara4207"></flowPara></flowRoot>  </g>
</svg>
