%!PS-Adobe-3.0 EPSF-3.0
%%Creator: PlantUML v1.2018.01      
%%Title: noTitle
%%BoundingBox: 0 0 279 255
%%ColorUsage: Color
%%Origin: 0 0
%%EndComments

gsave
0 255 translate
1 -1 scale
/rquadto {
3 index 3 index 4 2 roll rcurveto
} def
/P$0 {
3.0469 0 rlineto
0.9688 0 1.7109 0.125 rquadto
0.7422 0.125 1.2422 0.4063 rquadto
0.5 0.2813 0.75 0.7422 rquadto
0.25 0.4609 0.25 1.1172 rquadto
0 0.4063 -0.1328 0.7578 rquadto
-0.1328 0.3516 -0.3828 0.6172 rquadto
-0.25 0.2656 -0.6094 0.4375 rquadto
-0.3594 0.1719 -0.8281 0.2344 rquadto
0 0.0781 rlineto
0.4063 0.0781 0.7656 0.2422 rquadto
0.3594 0.1641 0.6172 0.4453 rquadto
0.2578 0.2813 0.4141 0.7109 rquadto
0.1563 0.4297 0.1563 1.0391 rquadto
0 0.7188 -0.2344 1.2813 rquadto
-0.2344 0.5625 -0.6875 0.9531 rquadto
-0.4531 0.3906 -1.0938 0.6016 rquadto
-0.6406 0.2109 -1.4531 0.2109 rquadto
-3.5313 0 rlineto
0 -10 rlineto
closepath
} def
/P$u {
-0.625 0 -1.1328 -0.2266 rquadto
-0.5078 -0.2266 -0.8828 -0.6641 rquadto
-0.375 -0.4375 -0.5781 -1.0859 rquadto
-0.2031 -0.6484 -0.2031 -1.4766 rquadto
0 -0.8281 0.1875 -1.4922 rquadto
0.1875 -0.6641 0.5313 -1.1172 rquadto
0.3438 -0.4531 0.8125 -0.6953 rquadto
0.4688 -0.2422 1.0469 -0.2422 rquadto
0.5625 0 1.0156 0.2344 rquadto
0.4531 0.2344 0.7656 0.6563 rquadto
0.3125 0.4219 0.4766 1.0156 rquadto
0.1641 0.5938 0.1641 1.3125 rquadto
0 0.7344 rlineto
-3.8125 0 rlineto
0.0313 1.0469 0.4453 1.5391 rquadto
0.4141 0.4922 1.2422 0.4922 rquadto
0.2813 0 0.5156 -0.0391 rquadto
0.2344 -0.0391 0.4609 -0.0938 rquadto
0.2266 -0.0547 0.4297 -0.1484 rquadto
0.2031 -0.0938 0.4219 -0.2031 rquadto
0 1.0313 rlineto
-0.2188 0.125 -0.4375 0.2109 rquadto
-0.2188 0.0859 -0.4531 0.1484 rquadto
-0.2344 0.0625 -0.4766 0.0859 rquadto
-0.2422 0.0234 -0.5391 0.0234 rquadto
closepath
} def
/P$15 {
0 0.2188 0.0469 0.3984 rquadto
0.0469 0.1797 0.1484 0.3203 rquadto
0.1016 0.1406 0.2656 0.2578 rquadto
0.1641 0.1172 0.4141 0.2266 rquadto
0 -2.2656 rlineto
-0.4531 0.0938 -0.6641 0.3672 rquadto
-0.2109 0.2734 -0.2109 0.6953 rquadto
} def
/P$8 {
0 0.6406 -0.2031 1.1484 rquadto
-0.2031 0.5078 -0.5859 0.8672 rquadto
-0.3828 0.3594 -0.9219 0.5391 rquadto
-0.5391 0.1797 -1.2266 0.1797 rquadto
-0.6563 0 -1.2266 -0.1172 rquadto
-0.5703 -0.1172 -0.9609 -0.3516 rquadto
0 -1.2188 rlineto
0.1875 0.125 0.4375 0.2422 rquadto
0.25 0.1172 0.5234 0.2109 rquadto
0.2734 0.0938 0.5625 0.1484 rquadto
0.2891 0.0547 0.5703 0.0547 rquadto
0.9063 0 1.3359 -0.4063 rquadto
0.4297 -0.4063 0.4297 -1.1719 rquadto
0 -0.3594 -0.0781 -0.625 rquadto
-0.0781 -0.2656 -0.2891 -0.4922 rquadto
-0.2109 -0.2266 -0.5547 -0.4297 rquadto
-0.3438 -0.2031 -0.8594 -0.4531 rquadto
-0.5 -0.2344 -0.875 -0.5156 rquadto
-0.375 -0.2813 -0.6094 -0.625 rquadto
-0.2344 -0.3438 -0.3516 -0.7813 rquadto
-0.1172 -0.4375 -0.1172 -1 rquadto
0 -0.5781 0.1953 -1.0391 rquadto
0.1953 -0.4609 0.5547 -0.7813 rquadto
0.3594 -0.3203 0.8594 -0.4844 rquadto
0.5 -0.1641 1.0938 -0.1641 rquadto
0.7344 0 1.3281 0.1563 rquadto
0.5938 0.1563 1.0469 0.3906 rquadto
-0.4063 1.0625 rlineto
-0.375 -0.2344 -0.8672 -0.4063 rquadto
-0.4922 -0.1719 -1.0234 -0.1719 rquadto
-0.7188 0 -1.1172 0.3906 rquadto
-0.3984 0.3906 -0.3984 1.0625 rquadto
0 0.375 0.0859 0.6563 rquadto
0.0859 0.2813 0.2813 0.5 rquadto
0.1953 0.2188 0.5156 0.4141 rquadto
0.3203 0.1953 0.7891 0.4141 rquadto
0.5156 0.25 0.8984 0.5 rquadto
0.3828 0.25 0.6406 0.5703 rquadto
0.2578 0.3203 0.3906 0.7344 rquadto
0.1328 0.4141 0.1328 0.9922 rquadto
} def
/P$f {
0.125 0 0.2656 -0.0156 rquadto
0.1406 -0.0156 0.2813 -0.0313 rquadto
0.1406 -0.0156 0.25 -0.0469 rquadto
0.1094 -0.0313 0.1719 -0.0469 rquadto
0 0.8906 rlineto
-0.0781 0.0313 -0.2109 0.0703 rquadto
-0.1328 0.0391 -0.2891 0.0703 rquadto
-0.1563 0.0313 -0.3203 0.0469 rquadto
-0.1641 0.0156 -0.3203 0.0156 rquadto
-0.4063 0 -0.7422 -0.1016 rquadto
-0.3359 -0.1016 -0.5859 -0.3438 rquadto
-0.25 -0.2422 -0.3906 -0.6641 rquadto
-0.1406 -0.4219 -0.1406 -1.0625 rquadto
0 -4 rlineto
-1 0 rlineto
0 -0.5 rlineto
1 -0.4688 rlineto
0.5 -1.4531 rlineto
0.6563 0 rlineto
0 1.5938 rlineto
1.7969 0 rlineto
0 0.8281 rlineto
-1.7969 0 rlineto
0 4 rlineto
0 0.6094 0.2031 0.9141 rquadto
0.2031 0.3047 0.6719 0.3047 rquadto
} def
/P$1d {
0 0.5781 -0.2031 1.0313 rquadto
-0.2031 0.4531 -0.5859 0.7734 rquadto
-0.3828 0.3203 -0.9219 0.4844 rquadto
-0.5391 0.1641 -1.2266 0.1641 rquadto
-0.6563 0 -1.2266 -0.1094 rquadto
-0.5703 -0.1094 -0.9609 -0.3281 rquadto
0 -1.125 rlineto
0.2031 0.1094 0.4531 0.2188 rquadto
0.25 0.1094 0.5234 0.1953 rquadto
0.2734 0.0859 0.5703 0.1406 rquadto
0.2969 0.0547 0.5781 0.0547 rquadto
0.9219 0 1.3672 -0.3672 rquadto
0.4453 -0.3672 0.4453 -1.0391 rquadto
0 -0.3281 -0.0859 -0.5625 rquadto
-0.0859 -0.2344 -0.2969 -0.4375 rquadto
-0.2109 -0.2031 -0.5547 -0.3906 rquadto
-0.3438 -0.1875 -0.8906 -0.4063 rquadto
-0.5 -0.2188 -0.8828 -0.4609 rquadto
-0.3828 -0.2422 -0.625 -0.5547 rquadto
-0.2422 -0.3125 -0.3594 -0.7109 rquadto
-0.1172 -0.3984 -0.1172 -0.8984 rquadto
0 -0.5313 0.1875 -0.9375 rquadto
0.1875 -0.4063 0.5313 -0.6953 rquadto
0.3438 -0.2891 0.8203 -0.4375 rquadto
0.4766 -0.1484 1.0391 -0.1484 rquadto
0.7031 0 1.2656 0.1406 rquadto
0.5625 0.1406 1 0.3594 rquadto
-0.375 0.9844 rlineto
-0.375 -0.2188 -0.8438 -0.375 rquadto
-0.4688 -0.1563 -0.9844 -0.1563 rquadto
-0.6875 0 -1.0703 0.3438 rquadto
-0.3828 0.3438 -0.3828 0.9375 rquadto
0 0.3438 0.0859 0.5938 rquadto
0.0859 0.25 0.2891 0.4453 rquadto
0.2031 0.1953 0.5313 0.375 rquadto
0.3281 0.1797 0.8125 0.3828 rquadto
0.5156 0.2031 0.9063 0.4297 rquadto
0.3906 0.2266 0.6563 0.5156 rquadto
0.2656 0.2891 0.3984 0.6719 rquadto
0.1328 0.3828 0.1328 0.8984 rquadto
} def
/P$2 {
0 3.9375 rlineto
2.0469 0 rlineto
0.6875 0 1.1406 -0.1484 rquadto
0.4531 -0.1484 0.7344 -0.4141 rquadto
0.2813 -0.2656 0.4063 -0.6484 rquadto
0.125 -0.3828 0.125 -0.8359 rquadto
0 -0.4219 -0.125 -0.7656 rquadto
-0.125 -0.3438 -0.4141 -0.5938 rquadto
-0.2891 -0.25 -0.7656 -0.3906 rquadto
-0.4766 -0.1406 -1.1953 -0.1406 rquadto
-1.9531 0 rlineto
} def
/P$1u {
0 3.0938 rlineto
1.6406 0 rlineto
0.5469 0 0.9141 -0.1172 rquadto
0.3672 -0.1172 0.5859 -0.3281 rquadto
0.2188 -0.2109 0.3203 -0.5078 rquadto
0.1016 -0.2969 0.1016 -0.6563 rquadto
0 -0.3281 -0.1016 -0.6016 rquadto
-0.1016 -0.2734 -0.3359 -0.4688 rquadto
-0.2344 -0.1953 -0.6172 -0.3047 rquadto
-0.3828 -0.1094 -0.9453 -0.1094 rquadto
-1.5625 0 rlineto
} def
/P$h {
0 1.2813 0.4297 1.9219 rquadto
0.4297 0.6406 1.3828 0.6406 rquadto
0.9688 0 1.3906 -0.6406 rquadto
0.4219 -0.6406 0.4219 -1.9219 rquadto
0 -1.2656 -0.4297 -1.8984 rquadto
-0.4297 -0.6328 -1.3828 -0.6328 rquadto
-0.9688 0 -1.3906 0.6328 rquadto
-0.4219 0.6328 -0.4219 1.8984 rquadto
} def
/P$1n {
-0.0469 0 rlineto
-0.1563 0.2188 -0.3516 0.4141 rquadto
-0.1953 0.1953 -0.4453 0.3359 rquadto
-0.25 0.1406 -0.5703 0.2266 rquadto
-0.3203 0.0859 -0.7109 0.0859 rquadto
-0.625 0 -1.1328 -0.2188 rquadto
-0.5078 -0.2188 -0.875 -0.6641 rquadto
-0.3672 -0.4453 -0.5625 -1.0938 rquadto
-0.1953 -0.6484 -0.1953 -1.5078 rquadto
0 -0.875 0.1953 -1.5313 rquadto
0.1953 -0.6563 0.5625 -1.0938 rquadto
0.3672 -0.4375 0.875 -0.6641 rquadto
0.5078 -0.2266 1.1328 -0.2266 rquadto
0.3906 0 0.7109 0.0859 rquadto
0.3203 0.0859 0.5703 0.2188 rquadto
0.25 0.1328 0.4531 0.3203 rquadto
0.2031 0.1875 0.3438 0.3906 rquadto
0.0781 0 rlineto
-0.0156 -0.2344 -0.0469 -0.4375 rquadto
0 -0.1719 -0.0156 -0.3594 rquadto
-0.0156 -0.1875 -0.0156 -0.2969 rquadto
0 -2.9219 rlineto
1.1563 0 rlineto
0 10 rlineto
-0.9375 0 rlineto
-0.1719 -1.0625 rlineto
closepath
} def
/P$1a {
0 0.8125 0.1641 1.4766 rquadto
0.1641 0.6641 0.5 1.125 rquadto
0.3359 0.4609 0.8516 0.7031 rquadto
0.5156 0.2422 1.2344 0.2422 rquadto
0.7188 0 1.2422 -0.2422 rquadto
0.5234 -0.2422 0.8594 -0.7031 rquadto
0.3359 -0.4609 0.4922 -1.125 rquadto
0.1563 -0.6641 0.1563 -1.4766 rquadto
0 -0.8438 -0.1563 -1.5 rquadto
-0.1563 -0.6563 -0.4922 -1.1094 rquadto
-0.3359 -0.4531 -0.8516 -0.6953 rquadto
-0.5156 -0.2422 -1.2344 -0.2422 rquadto
-0.7188 0 -1.2422 0.2422 rquadto
-0.5234 0.2422 -0.8594 0.6953 rquadto
-0.3359 0.4531 -0.5 1.1094 rquadto
-0.1641 0.6563 -0.1641 1.5 rquadto
} def
/P$1c {
0 -0.2813 0.0781 -0.4688 rquadto
0.0781 -0.1875 0.2109 -0.3047 rquadto
0.1328 -0.1172 0.3125 -0.1719 rquadto
0.1797 -0.0547 0.3984 -0.0547 rquadto
0.2031 0 0.3906 0.0547 rquadto
0.1875 0.0547 0.3203 0.1719 rquadto
0.1328 0.1172 0.2109 0.3047 rquadto
0.0781 0.1875 0.0781 0.4688 rquadto
0 0.2656 -0.0781 0.4531 rquadto
-0.0781 0.1875 -0.2109 0.3125 rquadto
-0.1328 0.125 -0.3203 0.1797 rquadto
-0.1875 0.0547 -0.3906 0.0547 rquadto
-0.2188 0 -0.3984 -0.0547 rquadto
-0.1797 -0.0547 -0.3125 -0.1797 rquadto
-0.1328 -0.125 -0.2109 -0.3125 rquadto
-0.0781 -0.1875 -0.0781 -0.4531 rquadto
} def
/P$g {
0 0.8438 -0.2109 1.5 rquadto
-0.2109 0.6563 -0.6016 1.1016 rquadto
-0.3906 0.4453 -0.9531 0.6797 rquadto
-0.5625 0.2344 -1.25 0.2344 rquadto
-0.6563 0 -1.1953 -0.2344 rquadto
-0.5391 -0.2344 -0.9375 -0.6797 rquadto
-0.3984 -0.4453 -0.625 -1.1016 rquadto
-0.2266 -0.6563 -0.2266 -1.5 rquadto
0 -0.8281 0.2109 -1.4766 rquadto
0.2109 -0.6484 0.6016 -1.0938 rquadto
0.3906 -0.4453 0.9531 -0.6797 rquadto
0.5625 -0.2344 1.25 -0.2344 rquadto
0.6563 0 1.1953 0.2344 rquadto
0.5391 0.2344 0.9375 0.6797 rquadto
0.3984 0.4453 0.625 1.0938 rquadto
0.2266 0.6484 0.2266 1.4766 rquadto
closepath
} def
/P$i {
0.625 0 1.1328 0.2188 rquadto
0.5078 0.2188 0.875 0.6641 rquadto
0.3672 0.4453 0.5625 1.0938 rquadto
0.1953 0.6484 0.1953 1.5078 rquadto
0 0.875 -0.1953 1.5313 rquadto
-0.1953 0.6563 -0.5625 1.0938 rquadto
-0.3672 0.4375 -0.875 0.6641 rquadto
-0.5078 0.2266 -1.1328 0.2266 rquadto
-0.3906 0 -0.7109 -0.0781 rquadto
-0.3203 -0.0781 -0.5703 -0.2188 rquadto
-0.25 -0.1406 -0.4453 -0.3203 rquadto
-0.1953 -0.1797 -0.3516 -0.3828 rquadto
-0.0781 0 rlineto
-0.2344 1 rlineto
-0.8438 0 rlineto
0 -10 rlineto
1.1563 0 rlineto
0 2.5156 rlineto
0 0.2344 -0.0078 0.5 rquadto
-0.0078 0.2656 -0.0234 0.5 rquadto
-0.0156 0.2656 -0.0313 0.5156 rquadto
0.0625 0 rlineto
0.1563 -0.2188 0.3438 -0.4063 rquadto
0.1875 -0.1875 0.4453 -0.3281 rquadto
0.2578 -0.1406 0.5781 -0.2188 rquadto
0.3203 -0.0781 0.7109 -0.0781 rquadto
closepath
} def
/P$e {
0 -4.4219 rlineto
0 -0.8125 -0.3828 -1.2188 rquadto
-0.3828 -0.4063 -1.2109 -0.4063 rquadto
-0.5938 0 -0.9922 0.1641 rquadto
-0.3984 0.1641 -0.6406 0.4844 rquadto
-0.2422 0.3203 -0.3516 0.7813 rquadto
-0.1094 0.4609 -0.1094 1.0547 rquadto
0 3.5625 rlineto
-1.1563 0 rlineto
0 -7 rlineto
0.9375 0 rlineto
0.1563 1.0625 rlineto
0.0781 0 rlineto
0.1719 -0.2656 0.4141 -0.4688 rquadto
0.2422 -0.2031 0.5313 -0.3359 rquadto
0.2891 -0.1328 0.6172 -0.1953 rquadto
0.3281 -0.0625 0.6563 -0.0625 rquadto
1.2969 0 1.9531 0.6016 rquadto
0.6563 0.6016 0.6563 1.9141 rquadto
0 4.4844 rlineto
-1.1563 0 rlineto
} def
/P$z {
0.0781 0.125 rlineto
-0.0938 0.3438 -0.2188 0.7031 rquadto
-0.125 0.3594 -0.2734 0.7344 rquadto
-0.1484 0.375 -0.3125 0.7422 rquadto
-0.1641 0.3672 -0.3203 0.6953 rquadto
-0.875 0 rlineto
0.1094 -0.3594 0.2188 -0.7578 rquadto
0.1094 -0.3984 0.2109 -0.7891 rquadto
0.1016 -0.3906 0.1797 -0.7656 rquadto
0.0781 -0.375 0.1406 -0.6875 rquadto
1.1719 0 rlineto
} def
/P$18 {
0 0.875 0.0703 1.5391 rquadto
0.0703 0.6641 0.2344 1.1016 rquadto
0.1641 0.4375 0.4219 0.6563 rquadto
0.2578 0.2188 0.6328 0.2188 rquadto
0.375 0 0.6406 -0.2188 rquadto
0.2656 -0.2188 0.4297 -0.6563 rquadto
0.1641 -0.4375 0.2422 -1.0938 rquadto
0.0781 -0.6563 0.0781 -1.5469 rquadto
0 -0.8906 -0.0781 -1.5469 rquadto
-0.0781 -0.6563 -0.2422 -1.0938 rquadto
-0.1641 -0.4375 -0.4297 -0.6563 rquadto
-0.2656 -0.2188 -0.6406 -0.2188 rquadto
-0.375 0 -0.6328 0.2188 rquadto
-0.2578 0.2188 -0.4219 0.6563 rquadto
-0.1641 0.4375 -0.2344 1.0938 rquadto
-0.0703 0.6563 -0.0703 1.5469 rquadto
} def
/P$1r {
-1.0469 -2.8281 rlineto
-0.0313 -0.1094 -0.0938 -0.2891 rquadto
-0.0625 -0.1797 -0.125 -0.375 rquadto
-0.0625 -0.1953 -0.125 -0.4141 rquadto
-0.0625 -0.2188 -0.125 -0.4219 rquadto
-0.0469 0.2031 -0.1094 0.4219 rquadto
-0.0625 0.2188 -0.1328 0.4219 rquadto
-0.0703 0.2031 -0.125 0.375 rquadto
-0.0547 0.1719 -0.1016 0.2813 rquadto
-1.0313 2.8281 rlineto
3.0156 0 rlineto
} def
/P$l {
1.2031 0 rlineto
1.4219 3.9063 rlineto
0.0781 0.25 0.1797 0.5313 rquadto
0.1016 0.2813 0.1797 0.5625 rquadto
0.0781 0.2813 0.1406 0.5469 rquadto
0.0625 0.2656 0.0781 0.4844 rquadto
0.0469 0 rlineto
0.0313 -0.1563 0.1094 -0.4297 rquadto
0.0781 -0.2734 0.1719 -0.5859 rquadto
0.0938 -0.3125 0.1953 -0.6094 rquadto
0.1016 -0.2969 0.1797 -0.5156 rquadto
1.4063 -3.8906 rlineto
1.1875 0 rlineto
-2.9531 7.9063 rlineto
-0.1875 0.4844 -0.3984 0.875 rquadto
-0.2109 0.3906 -0.4844 0.6563 rquadto
-0.2734 0.2656 -0.6484 0.4141 rquadto
-0.375 0.1484 -0.9063 0.1484 rquadto
-0.3281 0 -0.5781 -0.0313 rquadto
-0.25 -0.0313 -0.4219 -0.0781 rquadto
0 -0.9219 rlineto
0.1406 0.0313 0.3516 0.0547 rquadto
0.2109 0.0234 0.4297 0.0234 rquadto
0.3125 0 0.5469 -0.0703 rquadto
0.2344 -0.0703 0.3984 -0.2031 rquadto
0.1641 -0.1328 0.2891 -0.3203 rquadto
0.125 -0.1875 0.2188 -0.4375 rquadto
0.375 -0.9531 rlineto
-2.7188 -7.0625 rlineto
} def
/P$y {
-0.5156 0 -0.8672 0.1406 rquadto
-0.3516 0.1406 -0.5703 0.4297 rquadto
-0.2188 0.2891 -0.3281 0.7109 rquadto
-0.1094 0.4219 -0.1094 1 rquadto
0 0.25 rlineto
0 0.625 0.0938 1.1016 rquadto
0.0938 0.4766 0.3125 0.8047 rquadto
0.2188 0.3281 0.5781 0.4922 rquadto
0.3594 0.1641 0.9063 0.1641 rquadto
0.9063 0 1.3359 -0.6641 rquadto
0.4297 -0.6641 0.4297 -1.9141 rquadto
0 -1.2656 -0.4297 -1.8906 rquadto
-0.4297 -0.625 -1.3516 -0.625 rquadto
} def
/P$10 {
0.0781 0.125 rlineto
-0.0938 0.3438 -0.2188 0.7031 rquadto
-0.125 0.3594 -0.2734 0.7344 rquadto
-0.1484 0.375 -0.3203 0.7422 rquadto
-0.1719 0.3672 -0.3281 0.6953 rquadto
-0.8594 0 rlineto
0.1094 -0.3594 0.2188 -0.7578 rquadto
0.1094 -0.3984 0.2109 -0.7891 rquadto
0.1016 -0.3906 0.1797 -0.7656 rquadto
0.0781 -0.375 0.1406 -0.6875 rquadto
1.1719 0 rlineto
} def
/P$1l {
-0.0313 0 rlineto
-0.0938 0.1719 -0.2188 0.3203 rquadto
-0.125 0.1484 -0.2891 0.2578 rquadto
-0.1641 0.1094 -0.3672 0.1719 rquadto
-0.2031 0.0625 -0.4688 0.0625 rquadto
-0.3906 0 -0.7188 -0.1563 rquadto
-0.3281 -0.1563 -0.5625 -0.4688 rquadto
-0.2344 -0.3125 -0.3594 -0.7813 rquadto
-0.125 -0.4688 -0.125 -1.0781 rquadto
0 -0.625 0.125 -1.0938 rquadto
0.125 -0.4688 0.3594 -0.7813 rquadto
0.2344 -0.3125 0.5625 -0.4766 rquadto
0.3281 -0.1641 0.7344 -0.1641 rquadto
0.25 0 0.4531 0.0625 rquadto
0.2031 0.0625 0.3672 0.1719 rquadto
0.1641 0.1094 0.2891 0.25 rquadto
0.125 0.1406 0.2188 0.2969 rquadto
0.0625 0 rlineto
-0.0156 -0.1563 -0.0313 -0.2969 rquadto
-0.0156 -0.125 -0.0234 -0.25 rquadto
-0.0078 -0.125 -0.0078 -0.2031 rquadto
0 -2.0313 rlineto
0.8906 0 rlineto
0 7 rlineto
-0.7188 0 rlineto
-0.1406 -0.8125 rlineto
closepath
} def
/P$1o {
0.5156 0 0.8672 -0.1406 rquadto
0.3516 -0.1406 0.5703 -0.4297 rquadto
0.2188 -0.2891 0.3203 -0.7188 rquadto
0.1016 -0.4297 0.1172 -0.9922 rquadto
0 -0.25 rlineto
0 -0.625 -0.0938 -1.1016 rquadto
-0.0938 -0.4766 -0.3125 -0.8047 rquadto
-0.2188 -0.3281 -0.5781 -0.4922 rquadto
-0.3594 -0.1641 -0.9063 -0.1641 rquadto
-0.9063 0 -1.3359 0.6641 rquadto
-0.4297 0.6641 -0.4297 1.9141 rquadto
0 1.2656 0.4297 1.8906 rquadto
0.4297 0.625 1.3516 0.625 rquadto
} def
/P$1k {
0 -3.0313 rlineto
0 -0.5469 -0.2344 -0.8281 rquadto
-0.2344 -0.2813 -0.7188 -0.2813 rquadto
-0.3594 0 -0.6016 0.1094 rquadto
-0.2422 0.1094 -0.3906 0.3281 rquadto
-0.1484 0.2188 -0.2109 0.5391 rquadto
-0.0625 0.3203 -0.0625 0.7266 rquadto
0 2.4375 rlineto
-0.8906 0 rlineto
0 -5 rlineto
0.7344 0 rlineto
0.125 0.8125 rlineto
0.0469 0 rlineto
0.1094 -0.2031 0.2656 -0.3594 rquadto
0.1563 -0.1563 0.3438 -0.2578 rquadto
0.1875 -0.1016 0.3984 -0.1484 rquadto
0.2109 -0.0469 0.4141 -0.0469 rquadto
0.8281 0 1.25 0.4297 rquadto
0.4219 0.4297 0.4219 1.3672 rquadto
0 3.2031 rlineto
-0.8906 0 rlineto
} def
/P$m {
-0.0781 -0.125 rlineto
0.0938 -0.3281 0.2188 -0.6953 rquadto
0.125 -0.3672 0.2656 -0.7344 rquadto
0.1406 -0.3672 0.3125 -0.7422 rquadto
0.1719 -0.375 0.3281 -0.7031 rquadto
0.875 0 rlineto
-0.1094 0.3594 -0.2188 0.7578 rquadto
-0.1094 0.3984 -0.2109 0.7891 rquadto
-0.1016 0.3906 -0.1797 0.7656 rquadto
-0.0781 0.375 -0.1406 0.6875 rquadto
-1.1719 0 rlineto
closepath
} def
/P$n {
-0.0781 -0.125 rlineto
0.0938 -0.3281 0.2188 -0.6953 rquadto
0.125 -0.3672 0.2656 -0.7344 rquadto
0.1406 -0.3672 0.3125 -0.7422 rquadto
0.1719 -0.375 0.3281 -0.7031 rquadto
0.875 0 rlineto
-0.1094 0.3594 -0.2188 0.7578 rquadto
-0.1094 0.3984 -0.2109 0.7891 rquadto
-0.1016 0.3906 -0.1797 0.7656 rquadto
-0.0781 0.375 -0.1406 0.6875 rquadto
-1.1719 0 rlineto
} def
/P$1 {
2.0156 0 rlineto
0.6875 0 1.1563 -0.0938 rquadto
0.4688 -0.0938 0.7578 -0.2891 rquadto
0.2891 -0.1953 0.4141 -0.4766 rquadto
0.125 -0.2813 0.125 -0.6719 rquadto
0 -0.7656 -0.6328 -1.1016 rquadto
-0.6328 -0.3359 -2.0078 -0.3359 rquadto
-1.8281 0 rlineto
0 2.9688 rlineto
closepath
} def
/P$11 {
0 -0.2813 0.0781 -0.4688 rquadto
0.0781 -0.1875 0.2109 -0.3047 rquadto
0.1328 -0.1172 0.3125 -0.1719 rquadto
0.1797 -0.0547 0.3984 -0.0547 rquadto
0.2031 0 0.3906 0.0547 rquadto
0.1875 0.0547 0.3203 0.1719 rquadto
0.1328 0.1172 0.2109 0.3047 rquadto
0.0781 0.1875 0.0781 0.4688 rquadto
0 0.2656 -0.0781 0.4531 rquadto
-0.0781 0.1875 -0.2109 0.3125 rquadto
-0.1328 0.125 -0.3203 0.1797 rquadto
-0.1875 0.0547 -0.3906 0.0547 rquadto
-0.2188 0 -0.3984 -0.0547 rquadto
-0.1797 -0.0547 -0.3125 -0.1797 rquadto
-0.1328 -0.125 -0.2109 -0.3125 rquadto
-0.0781 -0.1875 -0.0781 -0.4531 rquadto
closepath
} def
/P$13 {
0 0.4375 -0.1484 0.7969 rquadto
-0.1484 0.3594 -0.4219 0.625 rquadto
-0.2734 0.2656 -0.6641 0.4375 rquadto
-0.3906 0.1719 -0.8906 0.25 rquadto
0 1.0625 rlineto
-0.875 0 rlineto
0 -1 rlineto
-0.2813 0 -0.5547 -0.0313 rquadto
-0.2734 -0.0313 -0.5391 -0.0859 rquadto
-0.2656 -0.0547 -0.5 -0.1406 rquadto
-0.2344 -0.0859 -0.4063 -0.1953 rquadto
0 -1.0938 rlineto
0.1875 0.0938 0.4219 0.1953 rquadto
0.2344 0.1016 0.5 0.1797 rquadto
0.2656 0.0781 0.5391 0.1328 rquadto
0.2734 0.0547 0.5391 0.0547 rquadto
0 -2.6875 rlineto
-0.5156 -0.1875 -0.8906 -0.3906 rquadto
-0.375 -0.2031 -0.625 -0.4688 rquadto
-0.25 -0.2656 -0.3672 -0.6094 rquadto
-0.1172 -0.3438 -0.1172 -0.8125 rquadto
0 -0.4219 0.1406 -0.7656 rquadto
0.1406 -0.3438 0.3984 -0.6016 rquadto
0.2578 -0.2578 0.6328 -0.4219 rquadto
0.375 -0.1641 0.8281 -0.2266 rquadto
0 -1.0313 rlineto
0.875 0 rlineto
0 1 rlineto
0.5938 0.0313 1.0859 0.1641 rquadto
0.4922 0.1328 0.8828 0.3359 rquadto
-0.3906 0.9219 rlineto
-0.3281 -0.1563 -0.7344 -0.2813 rquadto
-0.4063 -0.125 -0.8438 -0.1563 rquadto
0 2.5938 rlineto
0.5156 0.1875 0.9141 0.3984 rquadto
0.3984 0.2109 0.6719 0.4688 rquadto
0.2734 0.2578 0.4063 0.5938 rquadto
0.1328 0.3359 0.1328 0.7891 rquadto
closepath
} def
/P$1j {
-5.375 0 rlineto
0 -0.9844 rlineto
2.0313 -2.2969 rlineto
0.4219 -0.5 0.7656 -0.8984 rquadto
0.3438 -0.3984 0.5859 -0.7891 rquadto
0.2422 -0.3906 0.3672 -0.7813 rquadto
0.125 -0.3906 0.125 -0.8438 rquadto
0 -0.3438 -0.1016 -0.6094 rquadto
-0.1016 -0.2656 -0.2891 -0.4453 rquadto
-0.1875 -0.1797 -0.4375 -0.2734 rquadto
-0.25 -0.0938 -0.5625 -0.0938 rquadto
-0.5625 0 -1.0156 0.2422 rquadto
-0.4531 0.2422 -0.8594 0.6172 rquadto
-0.6094 -0.75 rlineto
0.2344 -0.2344 0.5078 -0.4297 rquadto
0.2734 -0.1953 0.5938 -0.3438 rquadto
0.3203 -0.1484 0.6719 -0.2344 rquadto
0.3516 -0.0859 0.7422 -0.0859 rquadto
0.5625 0 1.0234 0.1641 rquadto
0.4609 0.1641 0.7813 0.4688 rquadto
0.3203 0.3047 0.5 0.7422 rquadto
0.1797 0.4375 0.1797 0.9844 rquadto
0 0.5156 -0.1484 0.9766 rquadto
-0.1484 0.4609 -0.4141 0.9141 rquadto
-0.2656 0.4531 -0.6328 0.9063 rquadto
-0.3672 0.4531 -0.7891 0.9375 rquadto
-1.5938 1.8125 rlineto
-0.4219 0.0469 rlineto
4.375 0 rlineto
0 1.0469 rlineto
closepath
} def
/P$19 {
0 1 -0.2578 1.8359 rquadto
-0.2578 0.8359 -0.7578 1.4297 rquadto
-0.5 0.5938 -1.25 0.9141 rquadto
-0.75 0.3203 -1.7344 0.3203 rquadto
-1.0156 0 -1.7734 -0.3203 rquadto
-0.7578 -0.3203 -1.25 -0.9141 rquadto
-0.4922 -0.5938 -0.7344 -1.4297 rquadto
-0.2422 -0.8359 -0.2422 -1.8516 rquadto
0 -1.0156 0.2422 -1.8438 rquadto
0.2422 -0.8281 0.7344 -1.4141 rquadto
0.4922 -0.5859 1.25 -0.9063 rquadto
0.7578 -0.3203 1.7891 -0.3203 rquadto
0.9844 0 1.7266 0.3203 rquadto
0.7422 0.3203 1.2422 0.9063 rquadto
0.5 0.5859 0.7578 1.4141 rquadto
0.2578 0.8281 0.2578 1.8594 rquadto
closepath
} def
/P$1p {
-2.6094 -7 rlineto
1.1875 0 rlineto
1.3438 3.9844 rlineto
0.0781 0.2031 0.1797 0.5469 rquadto
0.1016 0.3438 0.1953 0.6953 rquadto
0.0938 0.3516 0.1797 0.6641 rquadto
0.0859 0.3125 0.1172 0.4688 rquadto
0.0469 0 rlineto
0.0313 -0.1563 0.1172 -0.4688 rquadto
0.0859 -0.3125 0.1875 -0.6641 rquadto
0.1016 -0.3516 0.2031 -0.6953 rquadto
0.1016 -0.3438 0.1797 -0.5469 rquadto
1.375 -3.9844 rlineto
1.1875 0 rlineto
-2.6719 7 rlineto
-1.2188 0 rlineto
} def
/P$a {
-3.375 0 rlineto
0 -0.6406 rlineto
1.0938 -0.2656 rlineto
0 -7.1875 rlineto
-1.0938 -0.2656 rlineto
0 -0.6406 rlineto
3.375 0 rlineto
0 0.6406 rlineto
-1.0938 0.2656 rlineto
0 7.1875 rlineto
1.0938 0.2656 rlineto
0 0.6406 rlineto
} def
/P$j {
-0.5313 0 -0.8906 0.1563 rquadto
-0.3594 0.1563 -0.5781 0.4688 rquadto
-0.2188 0.3125 -0.3125 0.7891 rquadto
-0.0938 0.4766 -0.0938 1.1172 rquadto
0 0.625 0.0938 1.1016 rquadto
0.0938 0.4766 0.3125 0.8047 rquadto
0.2188 0.3281 0.5781 0.4922 rquadto
0.3594 0.1641 0.9063 0.1641 rquadto
0.9063 0 1.3359 -0.6641 rquadto
0.4297 -0.6641 0.4297 -1.9141 rquadto
0 -1.2656 -0.4297 -1.8906 rquadto
-0.4297 -0.625 -1.3516 -0.625 rquadto
} def
/P$6 {
-0.7969 0 -1.2656 0.5 rquadto
-0.4688 0.5 -0.5469 1.4688 rquadto
3.4531 0 rlineto
0 -0.4375 -0.0938 -0.8047 rquadto
-0.0938 -0.3672 -0.2969 -0.625 rquadto
-0.2031 -0.2578 -0.5078 -0.3984 rquadto
-0.3047 -0.1406 -0.7422 -0.1406 rquadto
} def
/P$v {
-0.5938 0 -0.9453 0.5234 rquadto
-0.3516 0.5234 -0.4141 1.5234 rquadto
2.5938 0 rlineto
0 -0.4531 -0.0703 -0.8359 rquadto
-0.0703 -0.3828 -0.2188 -0.6484 rquadto
-0.1484 -0.2656 -0.3828 -0.4141 rquadto
-0.2344 -0.1484 -0.5625 -0.1484 rquadto
} def
/P$16 {
-1.125 0 rlineto
0 -5.2656 rlineto
0 -0.25 0.0078 -0.5313 rquadto
0.0078 -0.2813 0.0156 -0.5938 rquadto
0.0078 -0.3125 0.0156 -0.5938 rquadto
0.0078 -0.2813 0.0234 -0.5 rquadto
-0.1094 0.125 -0.1797 0.2031 rquadto
-0.0703 0.0781 -0.1406 0.1563 rquadto
-0.0703 0.0781 -0.1484 0.1641 rquadto
-0.0781 0.0859 -0.1875 0.1953 rquadto
-0.7813 0.7656 rlineto
-0.5 -0.875 rlineto
2.0469 -2.125 rlineto
0.9531 0 rlineto
0 9 rlineto
} def
/P$4 {
1.2969 0 rlineto
1.7031 4.5 rlineto
0.1094 0.2969 0.2188 0.625 rquadto
0.1094 0.3281 0.2109 0.6484 rquadto
0.1016 0.3203 0.1719 0.625 rquadto
0.0703 0.3047 0.1016 0.5547 rquadto
0.0469 0 rlineto
0.0469 -0.1875 0.1406 -0.5 rquadto
0.0938 -0.3125 0.2031 -0.6719 rquadto
0.1094 -0.3594 0.2344 -0.7031 rquadto
0.125 -0.3438 0.2188 -0.5938 rquadto
1.6719 -4.4844 rlineto
1.2813 0 rlineto
-3.4219 8.9844 rlineto
-0.2031 0.4688 -0.4453 0.8438 rquadto
-0.2422 0.375 -0.5625 0.6328 rquadto
-0.3203 0.2578 -0.7578 0.3984 rquadto
-0.4375 0.1406 -1.0313 0.1406 rquadto
-0.3906 0 -0.6719 -0.0391 rquadto
-0.2813 -0.0391 -0.4844 -0.0703 rquadto
0 -1.0156 rlineto
0.1563 0.0469 0.4063 0.0703 rquadto
0.25 0.0234 0.5156 0.0234 rquadto
0.3594 0 0.625 -0.0625 rquadto
0.2656 -0.0625 0.4688 -0.1953 rquadto
0.2031 -0.1328 0.3438 -0.3125 rquadto
0.1406 -0.1797 0.25 -0.4141 rquadto
0.4375 -0.9219 rlineto
-3.1719 -8.0625 rlineto
} def
/P$k {
-0.1719 -1.0625 rlineto
-0.0781 0 rlineto
-0.1719 0.2813 -0.4141 0.4766 rquadto
-0.2422 0.1953 -0.5313 0.3281 rquadto
-0.2891 0.1328 -0.6172 0.1953 rquadto
-0.3281 0.0625 -0.6563 0.0625 rquadto
-0.6563 0 -1.1406 -0.1406 rquadto
-0.4844 -0.1406 -0.8125 -0.4531 rquadto
-0.3281 -0.3125 -0.4922 -0.7891 rquadto
-0.1641 -0.4766 -0.1641 -1.1328 rquadto
0 -4.4844 rlineto
1.1563 0 rlineto
0 4.4219 rlineto
0 0.8125 0.3906 1.2188 rquadto
0.3906 0.4063 1.2031 0.4063 rquadto
0.5938 0 0.9922 -0.1641 rquadto
0.3984 -0.1641 0.6406 -0.4766 rquadto
0.2422 -0.3125 0.3516 -0.7734 rquadto
0.1094 -0.4609 0.1094 -1.0703 rquadto
0 -3.5625 rlineto
1.1563 0 rlineto
0 7 rlineto
-0.9219 0 rlineto
} def
/P$d {
0.3594 0 0.6563 -0.0938 rquadto
0.2969 -0.0938 0.5156 -0.2969 rquadto
0.2188 -0.2031 0.3438 -0.5 rquadto
0.125 -0.2969 0.125 -0.7031 rquadto
0 -0.5 rlineto
-0.8281 0.0313 rlineto
-0.5156 0.0313 -0.8672 0.1094 rquadto
-0.3516 0.0781 -0.5625 0.2266 rquadto
-0.2109 0.1484 -0.3047 0.3516 rquadto
-0.0938 0.2031 -0.0938 0.4688 rquadto
0 0.4688 0.2813 0.6875 rquadto
0.2813 0.2188 0.7344 0.2188 rquadto
} def
/P$t {
0 0.7969 0.3516 1.1797 rquadto
0.3516 0.3828 1.0078 0.3828 rquadto
0.6563 0 0.9922 -0.3828 rquadto
0.3359 -0.3828 0.3359 -1.1953 rquadto
0 -0.8438 -0.3438 -1.2422 rquadto
-0.3438 -0.3984 -1 -0.3984 rquadto
-0.6563 0 -1 0.4141 rquadto
-0.3438 0.4141 -0.3438 1.2422 rquadto
} def
/P$o {
0 -4.4219 rlineto
0 -0.8125 -0.2813 -1.2188 rquadto
-0.2813 -0.4063 -0.875 -0.4063 rquadto
-0.4219 0 -0.7109 0.1484 rquadto
-0.2891 0.1484 -0.4688 0.4297 rquadto
-0.1797 0.2813 -0.2656 0.7031 rquadto
-0.0859 0.4219 -0.0859 0.9688 rquadto
0 3.7969 rlineto
-1.1563 0 rlineto
0 -4.4219 rlineto
0 -0.8125 -0.2969 -1.2188 rquadto
-0.2969 -0.4063 -0.9219 -0.4063 rquadto
-0.4688 0 -0.7813 0.1641 rquadto
-0.3125 0.1641 -0.5 0.4844 rquadto
-0.1875 0.3203 -0.2656 0.7813 rquadto
-0.0781 0.4609 -0.0781 1.0547 rquadto
0 3.5625 rlineto
-1.1563 0 rlineto
0 -7 rlineto
0.9375 0 rlineto
0.1563 1.0625 rlineto
0.0625 0 rlineto
0.1406 -0.2656 0.3438 -0.4688 rquadto
0.2031 -0.2031 0.4453 -0.3359 rquadto
0.2422 -0.1328 0.5078 -0.1953 rquadto
0.2656 -0.0625 0.5469 -0.0625 rquadto
0.7344 0 1.2188 0.2813 rquadto
0.4844 0.2813 0.7188 0.875 rquadto
0.0469 0 rlineto
0.1563 -0.2969 0.3672 -0.5156 rquadto
0.2109 -0.2188 0.4688 -0.3594 rquadto
0.2578 -0.1406 0.5391 -0.2109 rquadto
0.2813 -0.0703 0.5781 -0.0703 rquadto
1.0156 0 1.5391 0.6016 rquadto
0.5234 0.6016 0.5234 1.9141 rquadto
0 4.4844 rlineto
-1.1563 0 rlineto
} def
/P$r {
0 0.7188 rlineto
-1.5 0.3906 rlineto
0.1875 0.2344 0.3047 0.6172 rquadto
0.1172 0.3828 0.1172 0.8516 rquadto
0 0.5156 -0.1563 0.9609 rquadto
-0.1563 0.4453 -0.4609 0.7734 rquadto
-0.3047 0.3281 -0.7656 0.5078 rquadto
-0.4609 0.1797 -1.0703 0.1797 rquadto
-0.1406 0 -0.2813 0 rquadto
-0.1406 0 -0.2344 -0.0313 rquadto
0 0.0469 -0.0078 0.1094 rquadto
-0.0078 0.0625 -0.0078 0.1406 rquadto
0 0.0781 0 0.1719 rquadto
0 0.0938 0 0.2031 rquadto
0 0.1406 0.0703 0.2188 rquadto
0.0703 0.0781 0.1953 0.1172 rquadto
0.125 0.0391 0.2891 0.0547 rquadto
0.1641 0.0156 0.3516 0.0156 rquadto
1.0625 0 rlineto
0.5469 0 0.9297 0.1406 rquadto
0.3828 0.1406 0.625 0.375 rquadto
0.2422 0.2344 0.3516 0.5625 rquadto
0.1094 0.3281 0.1094 0.6875 rquadto
0 0.5156 -0.2031 0.9297 rquadto
-0.2031 0.4141 -0.6172 0.7031 rquadto
-0.4141 0.2891 -1.0469 0.4453 rquadto
-0.6328 0.1563 -1.4922 0.1563 rquadto
-0.6719 0 -1.1641 -0.125 rquadto
-0.4922 -0.125 -0.8203 -0.3594 rquadto
-0.3281 -0.2344 -0.4922 -0.5625 rquadto
-0.1641 -0.3281 -0.1641 -0.75 rquadto
0 -0.3438 0.1328 -0.6094 rquadto
0.1328 -0.2656 0.3672 -0.4609 rquadto
0.2344 -0.1953 0.5234 -0.3203 rquadto
0.2891 -0.125 0.5859 -0.1875 rquadto
-0.2656 -0.1094 -0.4375 -0.3281 rquadto
-0.1719 -0.2188 -0.1719 -0.5 rquadto
0 -0.3438 0.0547 -0.5781 rquadto
0.0547 -0.2344 0.1797 -0.4688 rquadto
-0.2813 -0.125 -0.5078 -0.3438 rquadto
-0.2266 -0.2188 -0.3906 -0.5 rquadto
-0.1641 -0.2813 -0.25 -0.6094 rquadto
-0.0859 -0.3281 -0.0859 -0.6875 rquadto
0 -0.6094 0.1719 -1.0938 rquadto
0.1719 -0.4844 0.5 -0.8203 rquadto
0.3281 -0.3359 0.8203 -0.5156 rquadto
0.4922 -0.1797 1.1641 -0.1797 rquadto
0.25 0 0.5156 0 rquadto
0.2656 0 0.4531 0 rquadto
2.4531 0 rlineto
closepath
} def
/P$1f {
-1.1563 0 rlineto
0 -7 rlineto
1.1563 0 rlineto
0 7 rlineto
closepath
} def
/P$3 {
-0.1875 -1.1406 rlineto
-0.0625 0 rlineto
-0.1875 0.2969 -0.4219 0.5078 rquadto
-0.2344 0.2109 -0.5234 0.3516 rquadto
-0.2891 0.1406 -0.6016 0.2109 rquadto
-0.3125 0.0703 -0.6563 0.0703 rquadto
-0.625 0 -1.1016 -0.1641 rquadto
-0.4766 -0.1641 -0.7969 -0.5156 rquadto
-0.3203 -0.3516 -0.4844 -0.8984 rquadto
-0.1641 -0.5469 -0.1641 -1.2969 rquadto
0 -5.125 rlineto
1.2344 0 rlineto
0 5.0938 rlineto
0 0.9375 0.375 1.4063 rquadto
0.375 0.4688 1.1406 0.4688 rquadto
0.5781 0 0.9609 -0.1875 rquadto
0.3828 -0.1875 0.6172 -0.5547 rquadto
0.2344 -0.3672 0.3359 -0.8984 rquadto
0.1016 -0.5313 0.1016 -1.2188 rquadto
0 -4.1094 rlineto
1.2344 0 rlineto
0 8 rlineto
-1 0 rlineto
} def
/P$17 {
0 1.0625 -0.1328 1.8984 rquadto
-0.1328 0.8359 -0.4375 1.4141 rquadto
-0.3047 0.5781 -0.7813 0.8828 rquadto
-0.4766 0.3047 -1.1641 0.3047 rquadto
-0.625 0 -1.0938 -0.3047 rquadto
-0.4688 -0.3047 -0.7734 -0.8828 rquadto
-0.3047 -0.5781 -0.4609 -1.4141 rquadto
-0.1563 -0.8359 -0.1563 -1.8984 rquadto
0 -1.0625 0.1328 -1.8984 rquadto
0.1328 -0.8359 0.4375 -1.4141 rquadto
0.3047 -0.5781 0.7734 -0.8828 rquadto
0.4688 -0.3047 1.1406 -0.3047 rquadto
0.6406 0 1.1094 0.3047 rquadto
0.4688 0.3047 0.7813 0.8828 rquadto
0.3125 0.5781 0.4688 1.4141 rquadto
0.1563 0.8359 0.1563 1.8984 rquadto
closepath
} def
/P$x {
-0.3906 0 -0.7109 -0.0781 rquadto
-0.3203 -0.0781 -0.5703 -0.2188 rquadto
-0.25 -0.1406 -0.4453 -0.3203 rquadto
-0.1953 -0.1797 -0.3516 -0.3828 rquadto
-0.0781 0 rlineto
0.0156 0.2188 0.0469 0.4063 rquadto
0 0.1719 0.0156 0.3438 rquadto
0.0156 0.1719 0.0156 0.2813 rquadto
0 2.9688 rlineto
-1.1563 0 rlineto
0 -10 rlineto
0.9375 0 rlineto
0.1563 1.0625 rlineto
0.0469 0 rlineto
0.1563 -0.2188 0.3516 -0.4141 rquadto
0.1953 -0.1953 0.4531 -0.3359 rquadto
0.2578 -0.1406 0.5703 -0.2266 rquadto
0.3125 -0.0859 0.7188 -0.0859 rquadto
0.625 0 1.1328 0.2188 rquadto
0.5078 0.2188 0.875 0.6641 rquadto
0.3672 0.4453 0.5625 1.0938 rquadto
0.1953 0.6484 0.1953 1.5078 rquadto
0 0.875 -0.1953 1.5313 rquadto
-0.1953 0.6563 -0.5625 1.0938 rquadto
-0.3672 0.4375 -0.875 0.6641 rquadto
-0.5078 0.2266 -1.1328 0.2266 rquadto
closepath
} def
/P$1b {
-1.3438 0 rlineto
-3.7656 -4.5469 rlineto
-0.9531 0.75 rlineto
0 3.7969 rlineto
-1.1875 0 rlineto
0 -9 rlineto
1.1875 0 rlineto
0 4.75 rlineto
1 -1.0938 rlineto
3.7344 -3.6563 rlineto
1.3281 0 rlineto
-4.3281 3.9219 rlineto
4.3281 5.0781 rlineto
} def
/P$9 {
-1.2344 0 rlineto
0 -11 rlineto
1.2344 0 rlineto
0 11 rlineto
} def
/P$w {
-1.1563 0 rlineto
0 -10 rlineto
1.1563 0 rlineto
0 10 rlineto
} def
/P$12 {
-0.5313 0 -0.9844 -0.1953 rquadto
-0.4531 -0.1953 -0.7891 -0.6172 rquadto
-0.3359 -0.4219 -0.5313 -1.0781 rquadto
-0.1953 -0.6563 -0.1953 -1.5781 rquadto
0 -0.9531 0.1953 -1.6328 rquadto
0.1953 -0.6797 0.5469 -1.1016 rquadto
0.3516 -0.4219 0.8125 -0.6094 rquadto
0.4609 -0.1875 0.9922 -0.1875 rquadto
0.4063 0 0.7969 0.1094 rquadto
0.3906 0.1094 0.6563 0.2656 rquadto
-0.2656 0.9688 rlineto
-0.1094 -0.0625 -0.2422 -0.1172 rquadto
-0.1328 -0.0547 -0.2813 -0.1094 rquadto
-0.1484 -0.0547 -0.2891 -0.0781 rquadto
-0.1406 -0.0234 -0.2656 -0.0234 rquadto
-0.7656 0 -1.1172 0.6094 rquadto
-0.3516 0.6094 -0.3516 1.8906 rquadto
0 1.2813 0.3516 1.875 rquadto
0.3516 0.5938 1.0547 0.5938 rquadto
0.3906 0 0.7031 -0.125 rquadto
0.3125 -0.125 0.5781 -0.2813 rquadto
0 1.0469 rlineto
-0.2813 0.1875 -0.6016 0.2813 rquadto
-0.3203 0.0938 -0.7734 0.0938 rquadto
} def
/P$7 {
0.2031 0 0.4375 0.0156 rquadto
0.2344 0.0156 0.4063 0.0469 rquadto
-0.1563 1.1719 rlineto
-0.1875 -0.0313 -0.3828 -0.0625 rquadto
-0.1953 -0.0313 -0.3672 -0.0313 rquadto
-0.4063 0 -0.75 0.1875 rquadto
-0.3438 0.1875 -0.5938 0.5234 rquadto
-0.25 0.3359 -0.3828 0.8203 rquadto
-0.1328 0.4844 -0.1328 1.0625 rquadto
0 4.2656 rlineto
-1.2344 0 rlineto
0 -8 rlineto
1 0 rlineto
0.1563 1.5156 rlineto
0.0469 0 rlineto
0.1719 -0.2969 0.3594 -0.5703 rquadto
0.1875 -0.2734 0.4219 -0.4844 rquadto
0.2344 -0.2109 0.5234 -0.3359 rquadto
0.2891 -0.125 0.6484 -0.125 rquadto
closepath
} def
/P$1i {
0 -2.1563 rlineto
0 -0.3281 0.0078 -0.7031 rquadto
0.0078 -0.375 0.0234 -0.7266 rquadto
0.0156 -0.3516 0.0313 -0.6641 rquadto
0.0156 -0.3125 0.0156 -0.5156 rquadto
-0.0469 0 rlineto
-0.0469 0.125 -0.1094 0.2734 rquadto
-0.0625 0.1484 -0.1328 0.2969 rquadto
-0.0703 0.1484 -0.1406 0.2813 rquadto
-0.0703 0.1328 -0.1328 0.2422 rquadto
-2.375 3.6719 rlineto
2.8594 0 rlineto
} def
/P$5 {
-0.75 0 -1.3672 -0.2578 rquadto
-0.6172 -0.2578 -1.0703 -0.7578 rquadto
-0.4531 -0.5 -0.6953 -1.2422 rquadto
-0.2422 -0.7422 -0.2422 -1.6797 rquadto
0 -0.9688 0.2266 -1.7188 rquadto
0.2266 -0.75 0.6328 -1.2734 rquadto
0.4063 -0.5234 0.9766 -0.7969 rquadto
0.5703 -0.2734 1.2578 -0.2734 rquadto
0.6719 0 1.2109 0.2344 rquadto
0.5391 0.2344 0.9141 0.6641 rquadto
0.375 0.4297 0.5781 1.0391 rquadto
0.2031 0.6094 0.2031 1.3438 rquadto
0 0.75 rlineto
-4.7344 0 rlineto
0.0313 1.4844 0.5547 2.1797 rquadto
0.5234 0.6953 1.5703 0.6953 rquadto
0.3438 0 0.6406 -0.0313 rquadto
0.2969 -0.0313 0.5781 -0.1016 rquadto
0.2813 -0.0703 0.5391 -0.1641 rquadto
0.2578 -0.0938 0.5234 -0.2188 rquadto
0 1.1094 rlineto
-0.2656 0.125 -0.5313 0.2266 rquadto
-0.2656 0.1016 -0.5391 0.1563 rquadto
-0.2734 0.0547 -0.5703 0.0859 rquadto
-0.2969 0.0313 -0.6563 0.0313 rquadto
closepath
} def
/P$1m {
0.3125 0 0.5234 -0.0938 rquadto
0.2109 -0.0938 0.3359 -0.2734 rquadto
0.125 -0.1797 0.1875 -0.4609 rquadto
0.0625 -0.2813 0.0781 -0.6406 rquadto
0 -0.1563 rlineto
0 -0.4063 -0.0547 -0.7109 rquadto
-0.0547 -0.3047 -0.1875 -0.5156 rquadto
-0.1328 -0.2109 -0.3516 -0.3203 rquadto
-0.2188 -0.1094 -0.5313 -0.1094 rquadto
-0.5469 0 -0.8047 0.4297 rquadto
-0.2578 0.4297 -0.2578 1.2266 rquadto
0 0.8281 0.2578 1.2266 rquadto
0.2578 0.3984 0.8047 0.3984 rquadto
closepath
} def
/P$1t {
1.625 0 rlineto
0.5625 0 0.9453 -0.1016 rquadto
0.3828 -0.1016 0.6172 -0.2969 rquadto
0.2344 -0.1953 0.3359 -0.4844 rquadto
0.1016 -0.2891 0.1016 -0.6797 rquadto
0 -0.7969 -0.5156 -1.1406 rquadto
-0.5156 -0.3438 -1.625 -0.3438 rquadto
-1.4844 0 rlineto
0 3.0469 rlineto
closepath
} def
/P$1e {
0 -4.4219 rlineto
0 -0.8125 -0.3828 -1.2188 rquadto
-0.3828 -0.4063 -1.2109 -0.4063 rquadto
-0.5938 0 -0.9922 0.1641 rquadto
-0.3984 0.1641 -0.6406 0.4844 rquadto
-0.2422 0.3203 -0.3516 0.7813 rquadto
-0.1094 0.4609 -0.1094 1.0547 rquadto
0 3.5625 rlineto
-1.1563 0 rlineto
0 -10 rlineto
1.1563 0 rlineto
0 3.0938 rlineto
-0.0625 0.9688 rlineto
0.0781 0 rlineto
0.1719 -0.2656 0.4141 -0.4688 rquadto
0.2422 -0.2031 0.5313 -0.3359 rquadto
0.2891 -0.1328 0.6172 -0.1953 rquadto
0.3281 -0.0625 0.6563 -0.0625 rquadto
1.2969 0 1.9531 0.6016 rquadto
0.6563 0.6016 0.6563 1.9141 rquadto
0 4.4844 rlineto
-1.1563 0 rlineto
} def
/P$1s {
2.6094 0 rlineto
0.8281 0 1.4688 0.125 rquadto
0.6406 0.125 1.0625 0.4063 rquadto
0.4219 0.2813 0.6406 0.7344 rquadto
0.2188 0.4531 0.2188 1.1094 rquadto
0 0.4063 -0.125 0.75 rquadto
-0.125 0.3438 -0.3516 0.6094 rquadto
-0.2266 0.2656 -0.5703 0.4375 rquadto
-0.3438 0.1719 -0.7813 0.2344 rquadto
0 0.0625 rlineto
0.375 0.0625 0.7109 0.1953 rquadto
0.3359 0.1328 0.5859 0.3672 rquadto
0.25 0.2344 0.3906 0.5938 rquadto
0.1406 0.3594 0.1406 0.8594 rquadto
0 0.5938 -0.2031 1.0625 rquadto
-0.2031 0.4688 -0.5859 0.7891 rquadto
-0.3828 0.3203 -0.9375 0.4922 rquadto
-0.5547 0.1719 -1.2422 0.1719 rquadto
-3.0313 0 rlineto
0 -9 rlineto
closepath
} def
/P$p {
0 0.4844 -0.1641 0.8516 rquadto
-0.1641 0.3672 -0.4609 0.6172 rquadto
-0.2969 0.25 -0.7188 0.375 rquadto
-0.4219 0.125 -0.9531 0.125 rquadto
-0.6094 0 -1.0391 -0.1094 rquadto
-0.4297 -0.1094 -0.7578 -0.3281 rquadto
0 -1.0625 rlineto
0.1563 0.1094 0.3594 0.2031 rquadto
0.2031 0.0938 0.4219 0.1719 rquadto
0.2188 0.0781 0.4453 0.125 rquadto
0.2266 0.0469 0.4609 0.0469 rquadto
0.3438 0 0.5781 -0.0625 rquadto
0.2344 -0.0625 0.3828 -0.1875 rquadto
0.1484 -0.125 0.2188 -0.2969 rquadto
0.0703 -0.1719 0.0703 -0.3906 rquadto
0 -0.1875 -0.0547 -0.3438 rquadto
-0.0547 -0.1563 -0.1875 -0.3047 rquadto
-0.1328 -0.1484 -0.375 -0.3047 rquadto
-0.2422 -0.1563 -0.6172 -0.3438 rquadto
-0.375 -0.1875 -0.6719 -0.375 rquadto
-0.2969 -0.1875 -0.5078 -0.4141 rquadto
-0.2109 -0.2266 -0.3203 -0.5234 rquadto
-0.1094 -0.2969 -0.1094 -0.7031 rquadto
0 -0.4375 0.1484 -0.7734 rquadto
0.1484 -0.3359 0.4297 -0.5625 rquadto
0.2813 -0.2266 0.6641 -0.3438 rquadto
0.3828 -0.1172 0.8516 -0.1172 rquadto
0.5313 0 0.9766 0.1328 rquadto
0.4453 0.1328 0.8359 0.3516 rquadto
-0.3281 0.9219 rlineto
-0.3281 -0.1875 -0.6797 -0.3203 rquadto
-0.3516 -0.1328 -0.7109 -0.1328 rquadto
-0.5313 0 -0.7813 0.1953 rquadto
-0.25 0.1953 -0.25 0.5703 rquadto
0 0.2188 0.0625 0.375 rquadto
0.0625 0.1563 0.2031 0.2969 rquadto
0.1406 0.1406 0.3828 0.2891 rquadto
0.2422 0.1484 0.6016 0.3203 rquadto
0.375 0.1875 0.6719 0.375 rquadto
0.2969 0.1875 0.5 0.4141 rquadto
0.2031 0.2266 0.3125 0.5234 rquadto
0.1094 0.2969 0.1094 0.7188 rquadto
} def
/P$q {
0.2031 0 0.4453 0.0156 rquadto
0.2422 0.0156 0.4141 0.0469 rquadto
-0.1563 1.0625 rlineto
-0.2031 -0.0313 -0.3984 -0.0547 rquadto
-0.1953 -0.0234 -0.3672 -0.0234 rquadto
-0.4375 0 -0.7891 0.1563 rquadto
-0.3516 0.1563 -0.6016 0.4531 rquadto
-0.25 0.2969 -0.3906 0.7188 rquadto
-0.1406 0.4219 -0.1406 0.9219 rquadto
0 3.7031 rlineto
-1.1563 0 rlineto
0 -7 rlineto
0.9375 0 rlineto
0.1406 1.4063 rlineto
0.0469 0 rlineto
0.1719 -0.2813 0.3672 -0.5313 rquadto
0.1953 -0.25 0.4375 -0.4453 rquadto
0.2422 -0.1953 0.5391 -0.3125 rquadto
0.2969 -0.1172 0.6719 -0.1172 rquadto
} def
/P$s {
0 0.2188 0.0781 0.3984 rquadto
0.0781 0.1797 0.2578 0.3125 rquadto
0.1797 0.1328 0.4766 0.2109 rquadto
0.2969 0.0781 0.7344 0.0781 rquadto
1.1406 0 1.7031 -0.3281 rquadto
0.5625 -0.3281 0.5625 -0.9531 rquadto
0 -0.25 -0.0703 -0.4219 rquadto
-0.0703 -0.1719 -0.2422 -0.2656 rquadto
-0.1719 -0.0938 -0.4453 -0.125 rquadto
-0.2734 -0.0313 -0.6641 -0.0313 rquadto
-1.0781 0 rlineto
-0.2188 0 -0.4453 0.0469 rquadto
-0.2266 0.0469 -0.4219 0.1719 rquadto
-0.1953 0.125 -0.3203 0.3438 rquadto
-0.125 0.2188 -0.125 0.5625 rquadto
closepath
} def
/P$14 {
0 -0.2031 -0.0547 -0.375 rquadto
-0.0547 -0.1719 -0.1719 -0.3125 rquadto
-0.1172 -0.1406 -0.3047 -0.2656 rquadto
-0.1875 -0.125 -0.4688 -0.2344 rquadto
0 2.2969 rlineto
0.5 -0.0781 0.75 -0.375 rquadto
0.25 -0.2969 0.25 -0.7344 rquadto
closepath
} def
/P$c {
-0.2344 -1.0938 rlineto
-0.0469 0 rlineto
-0.2031 0.2813 -0.3984 0.4922 rquadto
-0.1953 0.2109 -0.4219 0.3438 rquadto
-0.2266 0.1328 -0.5156 0.1953 rquadto
-0.2891 0.0625 -0.6484 0.0625 rquadto
-0.4219 0 -0.7656 -0.1172 rquadto
-0.3438 -0.1172 -0.5938 -0.3516 rquadto
-0.25 -0.2344 -0.3906 -0.5938 rquadto
-0.1406 -0.3594 -0.1406 -0.8594 rquadto
0 -0.9531 0.6875 -1.4688 rquadto
0.6875 -0.5156 2.0781 -0.5625 rquadto
1.0938 -0.0469 rlineto
0 -0.4688 rlineto
0 -0.4375 -0.0938 -0.7422 rquadto
-0.0938 -0.3047 -0.2656 -0.4922 rquadto
-0.1719 -0.1875 -0.4297 -0.2656 rquadto
-0.2578 -0.0781 -0.5703 -0.0781 rquadto
-0.5313 0 -0.9844 0.1484 rquadto
-0.4531 0.1484 -0.8594 0.3672 rquadto
-0.4063 -0.8594 rlineto
0.4688 -0.25 1.0391 -0.4297 rquadto
0.5703 -0.1797 1.2109 -0.1797 rquadto
0.6406 0 1.1094 0.125 rquadto
0.4688 0.125 0.7813 0.4063 rquadto
0.3125 0.2813 0.4609 0.7109 rquadto
0.1484 0.4297 0.1484 1.0547 rquadto
0 4.7031 rlineto
-0.8438 0 rlineto
closepath
} def
/P$1h {
-0.875 0 rlineto
0 2 rlineto
-1.125 0 rlineto
0 -2 rlineto
-4 0 rlineto
0 -1 rlineto
3.9219 -6 rlineto
1.2031 0 rlineto
0 5.9531 rlineto
0.875 0 rlineto
0 1.0469 rlineto
closepath
} def
/P$1q {
-1.125 -3.0469 rlineto
-3.8438 0 rlineto
-1.1406 3.0469 rlineto
-1.1875 0 rlineto
3.7188 -9 rlineto
1.0781 0 rlineto
3.7031 9 rlineto
-1.2031 0 rlineto
closepath
} def
/P$1g {
0 -0.2656 0.1953 -0.3828 rquadto
0.1953 -0.1172 0.4766 -0.1172 rquadto
0.1406 0 0.2656 0.0313 rquadto
0.125 0.0313 0.2188 0.0859 rquadto
0.0938 0.0547 0.1484 0.1484 rquadto
0.0547 0.0938 0.0547 0.2344 rquadto
0 0.25 -0.2031 0.375 rquadto
-0.2031 0.125 -0.4844 0.125 rquadto
-0.2813 0 -0.4766 -0.125 rquadto
-0.1953 -0.125 -0.1953 -0.375 rquadto
} def
/P$b {
-1.2969 -3.9219 rlineto
-0.0313 -0.125 -0.0781 -0.2656 rquadto
-0.0469 -0.1406 -0.0938 -0.3047 rquadto
-0.0469 -0.1641 -0.1016 -0.3281 rquadto
-0.0547 -0.1641 -0.1016 -0.3203 rquadto
-0.1094 -0.375 -0.2188 -0.7656 rquadto
-0.0469 0 rlineto
-0.1094 0.4063 -0.2188 0.7656 rquadto
-0.0781 0.3281 -0.1797 0.6641 rquadto
-0.1016 0.3359 -0.1953 0.5703 rquadto
-1.375 3.9063 rlineto
-1.0938 0 rlineto
-2.1875 -7 rlineto
1.2188 0 rlineto
1.0156 3.7344 rlineto
0.0781 0.2813 0.1563 0.6172 rquadto
0.0781 0.3359 0.1484 0.6641 rquadto
0.0703 0.3281 0.125 0.6172 rquadto
0.0547 0.2891 0.0859 0.4766 rquadto
0.0469 0 rlineto
0.0469 -0.1719 0.1094 -0.4453 rquadto
0.0625 -0.2734 0.1484 -0.5859 rquadto
0.0859 -0.3125 0.1719 -0.6172 rquadto
0.0859 -0.3047 0.1641 -0.5078 rquadto
1.4063 -3.9531 rlineto
1 0 rlineto
1.3281 3.9531 rlineto
0.0625 0.2188 0.1484 0.5078 rquadto
0.0859 0.2891 0.1719 0.5938 rquadto
0.0859 0.3047 0.1563 0.5859 rquadto
0.0703 0.2813 0.1016 0.4688 rquadto
0.0469 0 rlineto
0.0156 -0.1719 0.0703 -0.4453 rquadto
0.0547 -0.2734 0.125 -0.6094 rquadto
0.0703 -0.3359 0.1484 -0.6797 rquadto
0.0781 -0.3438 0.1719 -0.6406 rquadto
1.0625 -3.7344 rlineto
1.1719 0 rlineto
-2.2031 7 rlineto
-1.1094 0 rlineto
} def
1.0 setlinewidth
0.6588 0 0.2118 setrgbcolor
newpath
29 86.2969 moveto
17{
0 5 rlineto
0 5 rmoveto
} repeat
stroke
1.0 setlinewidth
0.6588 0 0.2118 setrgbcolor
newpath
263.5 86.2969 moveto
17{
0 5 rlineto
0 5 rmoveto
} repeat
stroke
0 setlinewidth
[] 0 setdash
0 0 0 setrgbcolor
newpath
9 72.9951 moveto
P$0
10.2656 76.9951 moveto
P$1
10.2656 78.0264 moveto
P$2
fill
0 setlinewidth
[] 0 setdash
0 0 0 setrgbcolor
newpath
23 82.9951 moveto
P$3
fill
0 setlinewidth
[] 0 setdash
0 0 0 setrgbcolor
newpath
24.75 74.9951 moveto
P$4
fill
0 setlinewidth
[] 0 setdash
0 0 0 setrgbcolor
newpath
36.375 82.9951 moveto
P$5
36.0938 76.0264 moveto
P$6
fill
0 setlinewidth
[] 0 setdash
0 0 0 setrgbcolor
newpath
44.1563 74.9951 moveto
P$7
fill
0.7843 0.7843 0.7843 setrgbcolor
newpath
33.5 17 8 0 360 arc
closepath eofill
0.7098 0.7098 0.7098 setrgbcolor
newpath
33.5 17 7.5 0 360 arc
closepath eofill
0.6353 0.6353 0.6353 setrgbcolor
newpath
33.5 17 7 0 360 arc
closepath eofill
0.5608 0.5608 0.5608 setrgbcolor
newpath
33.5 17 6.5 0 360 arc
closepath eofill
0.4902 0.4902 0.4902 setrgbcolor
newpath
33.5 17 6 0 360 arc
closepath eofill
0.4157 0.4157 0.4157 setrgbcolor
newpath
33.5 17 5.5 0 360 arc
closepath eofill
0.3412 0.3412 0.3412 setrgbcolor
newpath
33.5 17 5 0 360 arc
closepath eofill
0.2667 0.2667 0.2667 setrgbcolor
newpath
33.5 17 4.5 0 360 arc
closepath eofill
0.1961 0.1961 0.1961 setrgbcolor
newpath
33.5 17 4 0 360 arc
closepath eofill
0.9961 0.9961 0.8078 setrgbcolor
newpath
29.5 13 8 0 360 arc
closepath eofill
2.0 setlinewidth
0.6588 0 0.2118 setrgbcolor
newpath
29.5 13 8 0 360 arc
closepath stroke
2.0 setlinewidth
0.6588 0 0.2118 setrgbcolor
newpath
29.5 21 moveto
29.5 48 lineto
16.5 29 moveto
42.5 29 lineto
29.5 48 moveto
16.5 63 lineto
29.5 48 moveto
42.5 63 lineto
stroke
0 setlinewidth
[] 0 setdash
0 0 0 setrgbcolor
newpath
248.5 80.2607 moveto
P$8
fill
0 setlinewidth
[] 0 setdash
0 0 0 setrgbcolor
newpath
253.875 82.9951 moveto
P$5
253.5938 76.0264 moveto
P$6
fill
0 setlinewidth
[] 0 setdash
0 0 0 setrgbcolor
newpath
259.7344 82.9951 moveto
P$9
fill
0 setlinewidth
[] 0 setdash
0 0 0 setrgbcolor
newpath
263.7344 82.9951 moveto
P$9
fill
0 setlinewidth
[] 0 setdash
0 0 0 setrgbcolor
newpath
269.875 82.9951 moveto
P$5
269.5938 76.0264 moveto
P$6
fill
0 setlinewidth
[] 0 setdash
0 0 0 setrgbcolor
newpath
277.6563 74.9951 moveto
P$7
fill
0.7843 0.7843 0.7843 setrgbcolor
newpath
267.5 17 8 0 360 arc
closepath eofill
0.7098 0.7098 0.7098 setrgbcolor
newpath
267.5 17 7.5 0 360 arc
closepath eofill
0.6353 0.6353 0.6353 setrgbcolor
newpath
267.5 17 7 0 360 arc
closepath eofill
0.5608 0.5608 0.5608 setrgbcolor
newpath
267.5 17 6.5 0 360 arc
closepath eofill
0.4902 0.4902 0.4902 setrgbcolor
newpath
267.5 17 6 0 360 arc
closepath eofill
0.4157 0.4157 0.4157 setrgbcolor
newpath
267.5 17 5.5 0 360 arc
closepath eofill
0.3412 0.3412 0.3412 setrgbcolor
newpath
267.5 17 5 0 360 arc
closepath eofill
0.2667 0.2667 0.2667 setrgbcolor
newpath
267.5 17 4.5 0 360 arc
closepath eofill
0.1961 0.1961 0.1961 setrgbcolor
newpath
267.5 17 4 0 360 arc
closepath eofill
0.9961 0.9961 0.8078 setrgbcolor
newpath
263.5 13 8 0 360 arc
closepath eofill
2.0 setlinewidth
0.6588 0 0.2118 setrgbcolor
newpath
263.5 13 8 0 360 arc
closepath stroke
2.0 setlinewidth
0.6588 0 0.2118 setrgbcolor
newpath
263.5 21 moveto
263.5 48 lineto
250.5 29 moveto
276.5 29 lineto
263.5 48 moveto
250.5 63 lineto
263.5 48 moveto
276.5 63 lineto
stroke
0.6588 0 0.2118 setrgbcolor
newpath
251.5 113.2969 moveto
10 4 rlineto
-10 4 rlineto
4 -4 rlineto
251.5 113.2969 lineto
closepath eofill
2.0 setlinewidth
0.6588 0 0.2118 setrgbcolor
newpath
251.5 113.2969 moveto
10 4 rlineto
-10 4 rlineto
4 -4 rlineto
251.5 113.2969 lineto
closepath stroke
1.0 setlinewidth
0.6588 0 0.2118 setrgbcolor
newpath
29.5 117.2969 moveto
228 0 rlineto
stroke
0 setlinewidth
[] 0 setdash
0 0 0 setrgbcolor
newpath
40.6563 112.3638 moveto
P$a
fill
0 setlinewidth
[] 0 setdash
0 0 0 setrgbcolor
newpath
51.4375 112.3638 moveto
P$b
fill
0 setlinewidth
[] 0 setdash
0 0 0 setrgbcolor
newpath
59.6563 112.3638 moveto
P$c
57.7031 111.4106 moveto
P$d
fill
0 setlinewidth
[] 0 setdash
0 0 0 setrgbcolor
newpath
67.3438 112.3638 moveto
P$e
fill
0 setlinewidth
[] 0 setdash
0 0 0 setrgbcolor
newpath
72.5313 111.4106 moveto
P$f
fill
0 setlinewidth
[] 0 setdash
0 0 0 setrgbcolor
newpath
79.5313 111.4106 moveto
P$f
fill
0 setlinewidth
[] 0 setdash
0 0 0 setrgbcolor
newpath
87.5 108.8481 moveto
P$g
82.6875 108.8481 moveto
P$h
fill
0 setlinewidth
[] 0 setdash
0 0 0 setrgbcolor
newpath
95.7344 105.3638 moveto
P$i
95.5313 106.3169 moveto
P$j
fill
0 setlinewidth
[] 0 setdash
0 0 0 setrgbcolor
newpath
105.5781 112.3638 moveto
P$k
fill
0 setlinewidth
[] 0 setdash
0 0 0 setrgbcolor
newpath
107.25 105.3638 moveto
P$l
fill
0 setlinewidth
[] 0 setdash
0 0 0 setrgbcolor
newpath
119.5781 106.3638 moveto
P$m
116.5781 106.3638 moveto
P$n
fill
0 setlinewidth
[] 0 setdash
0 0 0 setrgbcolor
newpath
125.6563 112.3638 moveto
P$a
fill
0 setlinewidth
[] 0 setdash
0 0 0 setrgbcolor
newpath
134.6563 112.3638 moveto
P$c
132.7031 111.4106 moveto
P$d
fill
0 setlinewidth
[] 0 setdash
0 0 0 setrgbcolor
newpath
145.3438 112.3638 moveto
P$o
fill
0 setlinewidth
[] 0 setdash
0 0 0 setrgbcolor
newpath
155.6563 112.3638 moveto
P$c
153.7031 111.4106 moveto
P$d
fill
0 setlinewidth
[] 0 setdash
0 0 0 setrgbcolor
newpath
165.5 110.395 moveto
P$p
fill
0 setlinewidth
[] 0 setdash
0 0 0 setrgbcolor
newpath
169.5313 111.4106 moveto
P$f
fill
0 setlinewidth
[] 0 setdash
0 0 0 setrgbcolor
newpath
174.6406 105.3638 moveto
P$q
fill
0 setlinewidth
[] 0 setdash
0 0 0 setrgbcolor
newpath
180.6563 112.3638 moveto
P$c
178.7031 111.4106 moveto
P$d
fill
0 setlinewidth
[] 0 setdash
0 0 0 setrgbcolor
newpath
188.3438 112.3638 moveto
P$e
fill
0 setlinewidth
[] 0 setdash
0 0 0 setrgbcolor
newpath
197.5781 105.3638 moveto
P$r
192.5938 113.5356 moveto
P$s
192.6563 107.8481 moveto
P$t
fill
0 setlinewidth
[] 0 setdash
0 0 0 setrgbcolor
newpath
201.2969 112.3638 moveto
P$u
201.0781 106.3169 moveto
P$v
fill
0 setlinewidth
[] 0 setdash
0 0 0 setrgbcolor
newpath
209.6563 112.3638 moveto
P$w
fill
0 setlinewidth
[] 0 setdash
0 0 0 setrgbcolor
newpath
217.5 108.8481 moveto
P$g
212.6875 108.8481 moveto
P$h
fill
0 setlinewidth
[] 0 setdash
0 0 0 setrgbcolor
newpath
225.5 108.8481 moveto
P$g
220.6875 108.8481 moveto
P$h
fill
0 setlinewidth
[] 0 setdash
0 0 0 setrgbcolor
newpath
230.7344 112.3638 moveto
P$x
230.5313 106.3169 moveto
P$y
fill
0 setlinewidth
[] 0 setdash
0 0 0 setrgbcolor
newpath
236.4219 103.3638 moveto
P$z
fill
0 setlinewidth
[] 0 setdash
0 0 0 setrgbcolor
newpath
239.4219 103.3638 moveto
P$10
fill
0 setlinewidth
[] 0 setdash
0 0 0 setrgbcolor
newpath
240 111.3638 moveto
P$11
fill
0.6588 0 0.2118 setrgbcolor
newpath
40.5 142.4297 moveto
-10 4 rlineto
10 4 rlineto
-4 -4 rlineto
40.5 142.4297 lineto
closepath eofill
1.0 setlinewidth
0.6588 0 0.2118 setrgbcolor
newpath
40.5 142.4297 moveto
-10 4 rlineto
10 4 rlineto
-4 -4 rlineto
40.5 142.4297 lineto
closepath stroke
1.0 setlinewidth
0.6588 0 0.2118 setrgbcolor
newpath
34.5 146.4297 moveto
228 0 rlineto
stroke
0 setlinewidth
[] 0 setdash
0 0 0 setrgbcolor
newpath
50.6563 141.4966 moveto
P$a
fill
0 setlinewidth
[] 0 setdash
0 0 0 setrgbcolor
newpath
54.5313 140.5435 moveto
P$f
fill
0 setlinewidth
[] 0 setdash
0 0 0 setrgbcolor
newpath
62 141.4966 moveto
P$12
fill
0 setlinewidth
[] 0 setdash
0 0 0 setrgbcolor
newpath
71.5 137.981 moveto
P$g
66.6875 137.981 moveto
P$h
fill
0 setlinewidth
[] 0 setdash
0 0 0 setrgbcolor
newpath
77.5 139.5278 moveto
P$p
fill
0 setlinewidth
[] 0 setdash
0 0 0 setrgbcolor
newpath
81.5313 140.5435 moveto
P$f
fill
0 setlinewidth
[] 0 setdash
0 0 0 setrgbcolor
newpath
87.5 139.5278 moveto
P$p
fill
0 setlinewidth
[] 0 setdash
0 0 0 setrgbcolor
newpath
97.5 139.3247 moveto
P$13
96.375 139.3403 moveto
P$14
93.625 135.5591 moveto
P$15
fill
0 setlinewidth
[] 0 setdash
0 0 0 setrgbcolor
newpath
103.5 141.4966 moveto
P$16
fill
0 setlinewidth
[] 0 setdash
0 0 0 setrgbcolor
newpath
111.5 136.9966 moveto
P$17
107.625 136.9966 moveto
P$18
fill
0 setlinewidth
[] 0 setdash
0 0 0 setrgbcolor
newpath
113 140.4966 moveto
P$11
fill
0.6588 0 0.2118 setrgbcolor
newpath
251.5 173.5625 moveto
10 4 rlineto
-10 4 rlineto
4 -4 rlineto
251.5 173.5625 lineto
closepath eofill
1.0 setlinewidth
0.6588 0 0.2118 setrgbcolor
newpath
251.5 173.5625 moveto
10 4 rlineto
-10 4 rlineto
4 -4 rlineto
251.5 173.5625 lineto
closepath stroke
1.0 setlinewidth
0.6588 0 0.2118 setrgbcolor
newpath
29.5 177.5625 moveto
228 0 rlineto
stroke
0 setlinewidth
[] 0 setdash
0 0 0 setrgbcolor
newpath
45.5 168.6372 moveto
P$19
38.75 168.6372 moveto
P$1a
fill
0 setlinewidth
[] 0 setdash
0 0 0 setrgbcolor
newpath
54.75 173.1372 moveto
P$1b
fill
0 setlinewidth
[] 0 setdash
0 0 0 setrgbcolor
newpath
55 172.1372 moveto
P$1c
fill
0 setlinewidth
[] 0 setdash
0 0 0 setrgbcolor
newpath
66.5 170.6841 moveto
P$1d
fill
0 setlinewidth
[] 0 setdash
0 0 0 setrgbcolor
newpath
73.3438 173.1372 moveto
P$1e
fill
0 setlinewidth
[] 0 setdash
0 0 0 setrgbcolor
newpath
77.6563 173.1372 moveto
P$1f
76.4063 164.6372 moveto
P$1g
fill
0 setlinewidth
[] 0 setdash
0 0 0 setrgbcolor
newpath
82.7344 173.1372 moveto
P$x
82.5313 167.0903 moveto
P$y
fill
0 setlinewidth
[] 0 setdash
0 0 0 setrgbcolor
newpath
91.6563 173.1372 moveto
P$1f
90.4063 164.6372 moveto
P$1g
fill
0 setlinewidth
[] 0 setdash
0 0 0 setrgbcolor
newpath
95.5313 172.1841 moveto
P$f
fill
0 setlinewidth
[] 0 setdash
0 0 0 setrgbcolor
newpath
102.5313 172.1841 moveto
P$f
fill
0 setlinewidth
[] 0 setdash
0 0 0 setrgbcolor
newpath
110.5 169.6216 moveto
P$g
105.6875 169.6216 moveto
P$h
fill
0 setlinewidth
[] 0 setdash
0 0 0 setrgbcolor
newpath
120.5 171.1372 moveto
P$1h
118.5 170.0903 moveto
P$1i
fill
0 setlinewidth
[] 0 setdash
0 0 0 setrgbcolor
newpath
127.875 173.1372 moveto
P$1j
fill
0 setlinewidth
[] 0 setdash
0 0 0 setrgbcolor
newpath
131.6094 167.8447 moveto
P$1k
fill
0 setlinewidth
[] 0 setdash
0 0 0 setrgbcolor
newpath
136.6406 167.0322 moveto
P$1l
135.4844 166.9854 moveto
P$1m
fill
0 setlinewidth
[] 0 setdash
0 0 0 setrgbcolor
newpath
146.5 171.1685 moveto
P$p
fill
0 setlinewidth
[] 0 setdash
0 0 0 setrgbcolor
newpath
150.5313 172.1841 moveto
P$f
fill
0 setlinewidth
[] 0 setdash
0 0 0 setrgbcolor
newpath
152 172.1372 moveto
P$11
fill
0.6588 0 0.2118 setrgbcolor
newpath
40.5 203.2031 moveto
-10 4 rlineto
10 4 rlineto
-4 -4 rlineto
40.5 203.2031 lineto
closepath eofill
1.0 setlinewidth
0.6588 0 0.2118 setrgbcolor
newpath
40.5 203.2031 moveto
-10 4 rlineto
10 4 rlineto
-4 -4 rlineto
40.5 203.2031 lineto
closepath stroke
1.0 setlinewidth
0.6588 0 0.2118 setrgbcolor
newpath
34.5 207.2031 moveto
228 0 rlineto
stroke
0 setlinewidth
[] 0 setdash
0 0 0 setrgbcolor
newpath
52.5 199.8169 moveto
P$1d
fill
0 setlinewidth
[] 0 setdash
0 0 0 setrgbcolor
newpath
59.3438 202.27 moveto
P$1e
fill
0 setlinewidth
[] 0 setdash
0 0 0 setrgbcolor
newpath
68.5 198.7544 moveto
P$g
63.6875 198.7544 moveto
P$h
fill
0 setlinewidth
[] 0 setdash
0 0 0 setrgbcolor
newpath
75.5781 202.27 moveto
P$k
fill
0 setlinewidth
[] 0 setdash
0 0 0 setrgbcolor
newpath
79.6563 202.27 moveto
P$w
fill
0 setlinewidth
[] 0 setdash
0 0 0 setrgbcolor
newpath
86.3906 201.2075 moveto
P$1n
84.4688 201.3169 moveto
P$1o
fill
0 setlinewidth
[] 0 setdash
0 0 0 setrgbcolor
newpath
95.7344 195.27 moveto
P$i
95.5313 196.2231 moveto
P$j
fill
0 setlinewidth
[] 0 setdash
0 0 0 setrgbcolor
newpath
103.2969 202.27 moveto
P$u
103.0781 196.2231 moveto
P$v
fill
0 setlinewidth
[] 0 setdash
0 0 0 setrgbcolor
newpath
115.3906 201.2075 moveto
P$1n
113.4688 201.3169 moveto
P$1o
fill
0 setlinewidth
[] 0 setdash
0 0 0 setrgbcolor
newpath
121.2969 202.27 moveto
P$u
121.0781 196.2231 moveto
P$v
fill
0 setlinewidth
[] 0 setdash
0 0 0 setrgbcolor
newpath
126.6563 202.27 moveto
P$w
fill
0 setlinewidth
[] 0 setdash
0 0 0 setrgbcolor
newpath
129.6563 202.27 moveto
P$1f
128.4063 193.77 moveto
P$1g
fill
0 setlinewidth
[] 0 setdash
0 0 0 setrgbcolor
newpath
132.8594 202.27 moveto
P$1p
fill
0 setlinewidth
[] 0 setdash
0 0 0 setrgbcolor
newpath
140.2969 202.27 moveto
P$u
140.0781 196.2231 moveto
P$v
fill
0 setlinewidth
[] 0 setdash
0 0 0 setrgbcolor
newpath
147.6406 195.27 moveto
P$q
fill
0 setlinewidth
[] 0 setdash
0 0 0 setrgbcolor
newpath
152.2969 202.27 moveto
P$u
152.0781 196.2231 moveto
P$v
fill
0 setlinewidth
[] 0 setdash
0 0 0 setrgbcolor
newpath
161.3906 201.2075 moveto
P$1n
159.4688 201.3169 moveto
P$1o
fill
0 setlinewidth
[] 0 setdash
0 0 0 setrgbcolor
newpath
170.7344 195.27 moveto
P$i
170.5313 196.2231 moveto
P$j
fill
0 setlinewidth
[] 0 setdash
0 0 0 setrgbcolor
newpath
174.25 195.27 moveto
P$l
fill
0 setlinewidth
[] 0 setdash
0 0 0 setrgbcolor
newpath
188.5 202.27 moveto
P$16
fill
0 setlinewidth
[] 0 setdash
0 0 0 setrgbcolor
newpath
196.5 197.77 moveto
P$17
192.625 197.77 moveto
P$18
fill
0 setlinewidth
[] 0 setdash
0 0 0 setrgbcolor
newpath
200.5313 201.3169 moveto
P$f
fill
0 setlinewidth
[] 0 setdash
0 0 0 setrgbcolor
newpath
207.3438 202.27 moveto
P$1e
fill
0 setlinewidth
[] 0 setdash
0 0 0 setrgbcolor
newpath
219.5469 202.27 moveto
P$1q
218.0156 198.27 moveto
P$1r
fill
0 setlinewidth
[] 0 setdash
0 0 0 setrgbcolor
newpath
226.5781 202.27 moveto
P$k
fill
0 setlinewidth
[] 0 setdash
0 0 0 setrgbcolor
newpath
235.5781 195.27 moveto
P$r
230.5938 203.4419 moveto
P$s
230.6563 197.7544 moveto
P$t
fill
0 setlinewidth
[] 0 setdash
0 0 0 setrgbcolor
newpath
241.5781 202.27 moveto
P$k
fill
0 setlinewidth
[] 0 setdash
0 0 0 setrgbcolor
newpath
248.5 200.3013 moveto
P$p
fill
0 setlinewidth
[] 0 setdash
0 0 0 setrgbcolor
newpath
252.5313 201.3169 moveto
P$f
fill
0 setlinewidth
[] 0 setdash
0 0 0 setrgbcolor
newpath
254 201.27 moveto
P$11
fill
0.6588 0 0.2118 setrgbcolor
newpath
251.5 232.3359 moveto
10 4 rlineto
-10 4 rlineto
4 -4 rlineto
251.5 232.3359 lineto
closepath eofill
1.0 setlinewidth
0.6588 0 0.2118 setrgbcolor
newpath
251.5 232.3359 moveto
10 4 rlineto
-10 4 rlineto
4 -4 rlineto
251.5 232.3359 lineto
closepath stroke
1.0 setlinewidth
0.6588 0 0.2118 setrgbcolor
newpath
29.5 236.3359 moveto
228 0 rlineto
stroke
0 setlinewidth
[] 0 setdash
0 0 0 setrgbcolor
newpath
37.5 222.4028 moveto
P$1s
38.6875 226.4028 moveto
P$1t
38.6875 227.356 moveto
P$1u
fill
0 setlinewidth
[] 0 setdash
0 0 0 setrgbcolor
newpath
44.25 224.4028 moveto
P$l
fill
0 setlinewidth
[] 0 setdash
0 0 0 setrgbcolor
newpath
54.2969 231.4028 moveto
P$u
54.0781 225.356 moveto
P$v
fill
0 setlinewidth
[] 0 setdash
0 0 0 setrgbcolor
newpath
58 230.4028 moveto
P$11
fill
grestore
showpage
%plantuml done
%%EOF
