@startuml
hide footbox
actor Client2
actor Client1
actor CoffeeSeller
actor CoffeeMaker1
actor CoffeeMaker2

Client1 -> CoffeeSeller: I’ll have an espresso
activate CoffeeSeller
CoffeeSeller -> CoffeeMaker1: 1 espresso
deactivate CoffeeSeller
activate CoffeeMaker1
Client2 -> CoffeeSeller: I’ll have a ristretto
activate CoffeeSeller
CoffeeSeller -> CoffeeMaker2: 1 ristretto
deactivate CoffeeSeller
activate CoffeeMaker2
||10||
CoffeeMaker1 --> CoffeeSeller: done for client1
deactivate CoffeeMaker1
activate CoffeeSeller
CoffeeSeller --> Client1: enjoy!
deactivate CoffeeSeller
CoffeeMaker2 --> CoffeeSeller: done for client 2
deactivate CoffeeMaker2
activate CoffeeSeller
CoffeeSeller --> Client2: enjoy!
deactivate CoffeeSeller
@enduml