@startuml
hide footbox
actor Client2
actor Client1
actor CoffeeSeller1
actor CoffeeMaker1
actor CoffeeSeller2
actor CoffeeMaker2

Client1 -> CoffeeSeller1: I’ll have an espresso
activate CoffeeSeller1
CoffeeSeller1 -> CoffeeMaker1: 1 espresso
activate CoffeeMaker1
Client2 -> CoffeeSeller2: I’ll have a ristretto
activate CoffeeSeller2
CoffeeSeller2 -> CoffeeMaker2: 1 ristretto
activate CoffeeMaker2
||10||
CoffeeMaker1 --> CoffeeSeller1: done
deactivate CoffeeMaker1
CoffeeSeller1 --> Client1: enjoy!
deactivate CoffeeSeller1
CoffeeMaker2 --> CoffeeSeller2: done
deactivate CoffeeMaker2
CoffeeSeller2 --> Client2: enjoy!
deactivate CoffeeSeller2
@enduml